--------------,--------------,--------------
./sdoh_ner_updated/Emily/sent_Legal_Problems_1/project02/corpus/1000445264592-2,,
--------------,--------------,--------------
Social,O,O
Worker,O,O
traveled,O,O
to,O,O
the,O,O
apartment,O,##B-Housing Insecurity
of,O,O
Mr.,O,O
Witherspoon,O,O
to,O,O
deliver,O,O
nutritional,O,##B-Food Insecurity
items,O,O
.,O,O
He,O,O
reminded,O,O
this,O,O
writer,O,O
of,O,O
trip,O,O
to,O,O
Hope,O,O
next,O,O
week,O,O
for,O,O
court,B-Legal Problems,B-Legal Problems
hearing,O,O
.,O,O
Issues,O,O
with,O,O
relapse,B-Substance Abuse,##O
when,O,O
returning,O,O
to,O,O
his,O,O
hometown,O,O
was,O,O
discussed,O,O
with,O,O
Mr.,O,O
Witherspoon,O,O
during,O,O
this,O,O
encounter,O,O
.,O,O
--------------,--------------,--------------
./sdoh_ner_updated/Emily/sent_Violence_1/project01/corpus/1200519603399-103,,
--------------,--------------,--------------
Attributes,O,O
the,O,O
attempt,B-Suicide Outcome,##O
to,O,O
feeling,O,O
panicked,O,O
,,O
seeing,B-Psychiatric Symptoms,##O
shadows,I-Psychiatric Symptoms,##O
that,O,O
were,O,O
not,O,O
there,O,O
and,O,O
intoxication,B-Substance Abuse,B-Substance Abuse
.,O,O
In,O,O
March,O,O
2009,O,O
,,O
veteran,O,O
purchased,O,O
a,O,O
gun,B-Transitions of Care,##O
and,O,O
practiced,O,O
pointing,O,O
it,O,O
at,O,O
herself,O,O
unloaded,O,O
.,O,O
Was,O,O
consuming,O,O
valium,O,O
,,O
Xanax,O,O
,,O
Tylenol,O,O
and,O,O
alcohol,B-Substance Abuse,B-Substance Abuse
.,O,O
--------------,--------------,--------------
./sdoh_ner_updated/Emily/sent_Violence_1/project01/corpus/1201279992634-51,,
--------------,--------------,--------------
Veteran,O,O
has,O,O
reported,O,O
physical,O,O
and,O,O
emotional,O,##B-Violence
abuse,B-Violence,##I-Violence
by,O,O
his,O,O
parents,B-Loss of Relationship,B-Loss of Relationship
and,O,O
has,O,O
no,O,O
contact,O,O
with,O,O
them,O,O
.,O,O
He,O,O
has,O,O
reported,O,O
he,O,O
was,O,O
removed,O,O
from,O,O
the,O,O
home,O,##B-Housing Insecurity
at,O,O
age,O,O
11,O,O
due,O,O
to,O,O
neglect,B-Violence,B-Violence
by,O,O
his,O,O
parents,O,##B-Loss of Relationship
and,O,O
placed,O,O
in,O,O
foster,O,O
care,O,O
.,O,O
Veteran,O,O
reports,O,O
a,O,O
half-,B-Loss of Relationship,##O
sister,I-Loss of Relationship,##O
and,O,O
half-brother,B-Loss of Relationship,##O
and,O,O
has,O,O
no,O,O
contact,O,O
with,O,O
them,O,O
.,O,O
--------------,--------------,--------------
./sdoh_ner_updated/Emily/sent_Transitions_of_Care_1/project02/corpus/1201234477959-7,,
--------------,--------------,--------------
's,O,O
family,O,O
is,O,O
anticipated,O,O
to,O,O
payoff,O,O
outstanding,O,O
bill,O,##B-Financial Insecurity
of,O,O
$,O,O
4000,O,O
and,O,O
Pt,O,O
.,O,O
will,O,O
be,O,O
accepted,O,O
for,O,O
placement,B-Transitions of Care,B-Transitions of Care
.,O,O
Writer,O,O
requested,O,O
to,O,O
faxed,O,O
physician,O,O
3008,O,O
,,O
medication,O,O
list,O,O
and,O,O
PASRR,O,O
prior,O,O
to,O,O
discharge,B-Transitions of Care,B-Transitions of Care
in,O,O
order,O,O
for,O,O
room,O,O
number,O,O
to,O,O
be,O,O
provided,O,O
.,O,O
--------------,--------------,--------------
./sdoh_ner_updated/Emily/sent_Housing_Insecurity_1/project05/corpus/1400411086050-95,,
--------------,--------------,--------------
Living,O,O
Situation,O,O
(,O,O
include,O,O
current,O,O
living,O,O
situation,O,O
and,O,O
expected,O,O
disposition,O,O
at,O,O
discharge,B-Transitions of Care,B-Transitions of Care
),O,O
:,O,O
Prior,O,O
to,O,O
admission,B-Transitions of Care,B-Transitions of Care
,,O
Mr.,O,O
Green,O,O
has,O,O
been,O,O
residing,O,O
in,O,O
NE,O,O
DC,O,O
(,O,O
4808,O,O
Hayes,O,O
Street,O,O
),O,O
with,O,O
his,O,O
wife,O,O
,,O
but,O,O
reports,O,O
he,O,O
does,O,O
not,O,O
intend,O,O
to,O,O
return,O,O
there,O,O
.,O,O
Mr.,O,O
Green,O,O
reports,O,O
that,O,O
he,O,O
has,O,O
an,O,O
apartment,B-Housing Insecurity,B-Housing Insecurity
in,O,O
GA,O,O
,,O
but,O,O
that,O,O
he,O,O
is,O,O
overdue,O,O
for,O,O
June,O,O
2013,O,O
rent,B-Housing Insecurity,##O
;,O,O
he,O,O
reports,O,O
that,O,O
he,O,O
plans,O,O
to,O,O
return,O,O
there,O,O
and,O,O
to,O,O
arrange,O,O
payment,O,O
of,O,O
rent,O,##B-Housing Insecurity
with,O,O
13-Jul,O,O
funds,O,##B-Financial Insecurity
.,O,O
Mr.,O,O
Green,O,O
reports,O,O
lack,O,O
of,O,O
funds,B-Financial Insecurity,B-Financial Insecurity
for,O,O
travel,O,O
;,O,O
writer,O,O
indicated,O,O
he,O,O
MAY,O,O
be,O,O
able,O,O
to,O,O
receive,O,O
funds,O,##B-Financial Insecurity
through,O,O
Travelers,O,O
Aid,O,O
;,O,O
information,O,O
to,O,O
be,O,O
provided,O,O
.,O,O
--------------,--------------,--------------
./sdoh_ner_updated/Emily/sent_Loss_of_Relationship_1/project03/corpus/1201223103330-15,,
--------------,--------------,--------------
Police,O,##B-Legal Problems
are,O,O
picking,O,O
up,O,O
Veteran,O,O
's,O,O
belongings,O,O
to,O,O
take,O,O
to,O,O
him,O,O
and,O,O
to,O,O
inform,O,O
him,O,O
he,O,O
ca,O,O
n't,O,O
call,O,O
death,B-Violence,##B-Suicide Outcome
threats,I-Violence,##I-Suicide Outcome
.,O,O
TCH,O,O
SW,O,O
related,O,O
that,O,O
police,O,O
decline,O,O
to,O,O
Baker,O,O
Act,O,O
Veteran,O,O
.,O,O
--------------,--------------,--------------
./sdoh_ner_updated/Emily/sent_Legal_Problems_1/project02/corpus/1200613686341-3,,
--------------,--------------,--------------
Per,O,O
Veteran,O,O
,,O
he,O,O
is,O,O
out,O,O
of,O,O
his,O,O
meds,O,O
for,O,O
his,O,O
PTSD,B-Psychiatric Symptoms,B-Psychiatric Symptoms
and,O,O
other,O,O
medical,O,O
problems,O,O
for,O,O
several,O,O
days,O,O
.,O,O
He,O,O
voiced,O,O
several,O,O
concerns,O,O
that,O,O
he,O,O
'',O,O
may,O,O
wind,O,O
up,O,O
in,O,O
jail,O,##B-Legal Problems
if,O,O
he,O,O
fails,O,O
to,O,O
get,O,O
his,O,O
meds,O,O
.,O,O
'',O,O
On,O,O
major,O,O
concern,O,O
for,O,O
the,O,O
Veteran,O,O
is,O,O
the,O,O
failure,O,O
to,O,O
receive,O,O
his,O,O
VA,O,O
disability,B-Patient Disability,B-Patient Disability
income,O,##B-Financial Insecurity
.,O,O
--------------,--------------,--------------
./sdoh_ner_updated/Emily/sent_Legal_Problems_1/project04/corpus/1201203404291-39,,
--------------,--------------,--------------
Veteran,O,O
discussed,O,O
that,O,O
he,O,O
has,O,O
knee,O,O
,,O
ankle,O,O
,,O
and,O,O
toe,O,O
problems,O,O
.,O,O
Veteran,O,O
reported,O,O
that,O,O
he,O,O
has,O,O
a,O,O
court,B-Legal Problems,B-Legal Problems
date,O,O
tomorrow,O,O
,,O
8/26/2016,O,O
,,O
that,O,O
he,O,O
can,O,O
not,O,O
miss,O,O
,,O
or,O,O
he,O,O
will,O,O
be,O,O
arrested,O,##B-Legal Problems
.,O,O
Veteran,O,O
denied,O,O
SI/,O,O
HI,B-Violence,B-Violence
intent,O,O
or,O,O
plan,O,O
,,O
although,O,O
he,O,O
did,O,O
state,O,O
that,O,O
he,O,O
was,O,O
depressed,B-Psychiatric Symptoms,B-Psychiatric Symptoms
.,O,O
--------------,--------------,--------------
./sdoh_ner_updated/Emily/sent_Legal_Problems_1/project04/corpus/800239247665-4,,
--------------,--------------,--------------
Vet,O,O
told,O,O
of,O,O
his,O,O
need,O,O
to,O,O
remain,O,O
in,O,O
the,O,O
hospital,B-Transitions of Care,##O
to,O,O
address,O,O
his,O,O
SA,B-Substance Abuse,B-Substance Abuse
while,O,O
at,O,O
VVRC,O,O
and,O,O
to,O,O
have,O,O
his,O,O
medications,O,O
readjusted,O,O
.,O,O
Vet,O,O
willing,O,O
to,O,O
stay,O,O
voluntarily,O,O
when,O,O
option,O,O
of,O,O
a,O,O
legal,O,##B-Legal Problems
hold,O,##I-Legal Problems
was,O,O
discussed,O,O
.,O,O
Plan,O,O
is,O,O
to,O,O
have,O,O
vet,O,O
ready,O,O
for,O,O
discharge,B-Transitions of Care,B-Transitions of Care
early,O,O
next,O,O
week,O,O
.,O,O
--------------,--------------,--------------
