Jan 19, 2021 ################################################################################################

Legal Problems 1152 1.3446180555555556 1549
Transitions of Care 1417 1.0564573041637262 1497
Substance Abuse 977 1.368474923234391 1337
Financial Insecurity 2182 1.3295142071494042 2901
Barriers to Care 497 1.5130784708249496 752
Housing Insecurity 3907 1.4346045559252623 5605
Job Insecurity 1496 1.1537433155080214 1726
Psychiatric Symptoms 1784 1.2404708520179373 2213
Suicide Outcome 407 1.6805896805896805 684
Pain 396 1.0075757575757576 399
Social Isolation 566 1.3409893992932862 759
Patient Disability 623 1.218298555377207 759
Loss of Relationship 366 1.1967213114754098 438
Violence 555 1.381981981981982 767
Food Insecurity 709 1.782792665726375 1264
Stigma/Shame 32 1.09375 35
Physical Isolation 8 1.5 12
Exposure to suicide of family/friends 4 1.25 5
Demographics 1 1.0 1

01/19/2021 03:53:15 - INFO - __main__ -   ***** Running evaluation on dev*****
01/19/2021 03:53:15 - INFO - __main__ -     Num examples = 3058
01/19/2021 03:53:15 - INFO - __main__ -     Batch size = 8
01/19/2021 03:56:23 - INFO - __main__ -   
                      precision    recall  f1-score   support predicted

Financial Insecurity     0.6618    0.7098    0.6850       386       414
Psychiatric Symptoms     0.7105    0.7488    0.7291       426       449
    Social Isolation     0.5102    0.4386    0.4717       114        98
            Violence     0.7049    0.7544    0.7288       114       122
 Transitions of Care     0.7609    0.8043    0.7820       281       297
     Suicide Outcome     0.7024    0.7867    0.7421        75        84
                Pain     0.9167    0.9565    0.9362        69        72
     Food Insecurity     0.8047    0.7923    0.7984       130       128
      Job Insecurity     0.7708    0.7735    0.7722       287       288
  Patient Disability     0.8583    0.8321    0.8450       131       127
     Substance Abuse     0.7311    0.8246    0.7751       211       238
  Housing Insecurity     0.6869    0.7574    0.7204       808       891
      Legal Problems     0.7638    0.7760    0.7698       250       254
    Barriers to Care     0.6854    0.6630    0.6740        92        89
Loss of Relationship     0.5432    0.5867    0.5641        75        81

           micro avg     0.7156    0.7536    0.7341      3449      3632
           macro avg     0.7208    0.7470    0.7329      3449      3632
        weighted avg     0.7158    0.7536    0.7337      3449      3632

01/19/2021 03:56:25 - INFO - __main__ -   ***** Running evaluation on test*****
01/19/2021 03:56:25 - INFO - __main__ -     Num examples = 3059
01/19/2021 03:56:25 - INFO - __main__ -     Batch size = 8
01/19/2021 03:59:27 - INFO - __main__ -   
                      precision    recall  f1-score   support predicted

  Housing Insecurity     0.7209    0.7816    0.7500       760       824
      Job Insecurity     0.7388    0.7465    0.7427       288       291
Financial Insecurity     0.6456    0.7051    0.6740       434       474
Psychiatric Symptoms     0.7248    0.7315    0.7281       324       327
 Transitions of Care     0.7607    0.8256    0.7918       281       305
  Patient Disability     0.8300    0.7685    0.7981       108       100
                Pain     0.8947    0.8831    0.8889        77        76
            Violence     0.6400    0.6465    0.6432        99       100
      Legal Problems     0.7185    0.7435    0.7308       230       238
     Food Insecurity     0.7956    0.7956    0.7956       137       137
     Suicide Outcome     0.7333    0.7333    0.7333        60        60
     Substance Abuse     0.7267    0.7134    0.7200       164       161
    Social Isolation     0.4746    0.4628    0.4686       121       118
    Barriers to Care     0.7200    0.5870    0.6467        92        75
Loss of Relationship     0.6104    0.6528    0.6309        72        77

           micro avg     0.7128    0.7382    0.7253      3247      3363
           macro avg     0.7156    0.7185    0.7162      3247      3363
        weighted avg     0.7134    0.7382    0.7249      3247      3363

Feb 8, 2021 ################################################################################################

Transitions of Care 3168 1.0391414141414141 3292
Housing Insecurity 6638 1.405845134076529 9332
Financial Insecurity 3060 1.3297385620915032 4069
Food Insecurity 728 1.7788461538461537 1295
Substance Abuse 1618 1.373300370828183 2222
Violence 1256 1.3503184713375795 1696
Physical Isolation 30 1.2666666666666666 38
Suicide Outcome 810 1.6012345679012345 1297
Job Insecurity 1701 1.1540270429159318 1963
Legal Problems 2216 1.3434115523465704 2977
Psychiatric Symptoms 2532 1.2602685624012637 3191
Pain 460 1.008695652173913 464
Barriers to Care 737 1.4830393487109905 1093
Loss of Relationship 855 1.2502923976608187 1069
Patient Disability 896 1.2075892857142858 1082
Social Isolation 1034 1.4390715667311411 1488
Stigma/Shame 44 1.1136363636363635 49
Demographics 6 1.0 6
Exposure to suicide of family/friends 5 1.2 6


                      precision    recall  f1-score   support predicted

 Transitions of Care     0.8052    0.7988    0.8020       507       503
      Legal Problems     0.6907    0.4595    0.5519      1458       970
Loss of Relationship     0.5101    0.5872    0.5459       172       198
  Housing Insecurity     0.7495    0.6841    0.7153       573       523
      Job Insecurity     0.7522    0.6781    0.7132       640       577
     Suicide Outcome     0.6286    0.7059    0.6650       187       210
    Barriers to Care     0.6170    0.5649    0.5898       154       141
     Substance Abuse     0.6862    0.7910    0.7349       445       513
            Violence     0.7357    0.6234    0.6749       393       333
Financial Insecurity     0.6256    0.7135    0.6667       569       649
Psychiatric Symptoms     0.7152    0.7093    0.7122       492       488
  Patient Disability     0.9171    0.8259    0.8691       201       181
                Pain     0.7826    1.0000    0.8780        36        46
    Social Isolation     0.7130    0.4249    0.5325       193       115
     Food Insecurity     0.6667    0.6667    0.6667         3         3

           micro avg     0.7081    0.6407    0.6727      6023      5450
           macro avg     0.7064    0.6822    0.6879      6023      5450
        weighted avg     0.7108    0.6407    0.6674      6023      5450

02/08/2021 17:44:40 - INFO - __main__ -   ***** Running evaluation on test*****

                      precision    recall  f1-score   support predicted

  Housing Insecurity     0.6037    0.6914    0.6446       619       709
 Transitions of Care     0.8675    0.8213    0.8438      1371      1298
    Social Isolation     0.6973    0.6792    0.6881       346       337
Loss of Relationship     0.3819    0.7213    0.4994       305       576
      Legal Problems     0.6258    0.4543    0.5265       449       326
  Patient Disability     0.7863    0.8142    0.8000       113       117
            Violence     0.6822    0.6744    0.6783       433       428
Psychiatric Symptoms     0.6444    0.7988    0.7133       338       419
     Substance Abuse     0.6458    0.7949    0.7126       312       384
     Suicide Outcome     0.6577    0.6728    0.6651       217       222
    Barriers to Care     0.6165    0.6357    0.6260       129       133
Financial Insecurity     0.4403    0.6087    0.5109       115       159
                Pain     0.8000    0.9091    0.8511        44        50
      Job Insecurity     0.7838    0.6170    0.6905        47        37
     Food Insecurity     0.2667    0.4444    0.3333         9        15

           micro avg     0.6691    0.7192    0.6932      4847      5210
           macro avg     0.6333    0.6892    0.6522      4847      5210
        weighted avg     0.6917    0.7192    0.6988      4847      5210

Relaxed:

                      precision    recall  f1-score   support predicted

            Violence     0.8061    0.7968    0.8014       433       428
  Patient Disability     0.8120    0.8407    0.8261       113       117
Psychiatric Symptoms     0.7208    0.8935    0.7979       338       419
    Social Isolation     0.7774    0.7572    0.7672       346       337
  Housing Insecurity     0.6982    0.7997    0.7455       619       709
 Transitions of Care     0.8760    0.8293    0.8520      1371      1298
Financial Insecurity     0.5723    0.7913    0.6642       115       159
                Pain     0.8000    0.9091    0.8511        44        50
      Legal Problems     0.8589    0.6236    0.7226       449       326
Loss of Relationship     0.4340    0.8197    0.5675       305       576
    Barriers to Care     0.6466    0.6667    0.6565       129       133
     Substance Abuse     0.7083    0.8718    0.7816       312       384
      Job Insecurity     0.7838    0.6170    0.6905        47        37
     Suicide Outcome     0.7703    0.7880    0.7790       217       222
     Food Insecurity     0.2667    0.4444    0.3333         9        15

           micro avg     0.7407    0.7962    0.7674      4847      5210
           macro avg     0.7021    0.7633    0.7224      4847      5210
        weighted avg     0.7667    0.7962    0.7736      4847      5210


Feb 10, 2021 ################################################################################################

Total EHRs: 20050, annotations: 10369
********************
No overlap: 2808, Single overlaps: 3657, More than 2 ann overlaps: 6, Overlap for single ann: 62
Counter({'Emily-Raelene': 1716, 'Emily-Heather': 1272, 'Heather-Raelene': 669})
Counter({'Emily': 1977, 'Raelene': 683, 'Heather': 148})
********************
Counter({'Housing Insecurity': 7020, 'Transitions of Care': 3222, 'Financial Insecurity': 3108, 'Psychiatric Symptoms': 2607, 'Lega                                 l Problems': 2231, 'Job Insecurity': 1717, 'Substance Abuse': 1675, 'Violence': 1335, 'Social Isolation': 1090, 'Loss of Relationsh                                 ip': 1028, 'Patient Disability': 919, 'Suicide Outcome': 857, 'Barriers to Care': 745, 'Food Insecurity': 731, 'Pain': 465, 'Stigma                                 /Shame': 45, 'Physical Isolation': 30, 'Demographics': 8, 'Exposure to suicide of family/friends': 5})
28838
Housing Insecurity 7020 1.404131054131054 9857
Transitions of Care 3222 1.0384854127870888 3346
Violence 1335 1.3602996254681647 1816
Loss of Relationship 1028 1.296692607003891 1333
Financial Insecurity 3108 1.3262548262548262 4122
Patient Disability 919 1.205658324265506 1108
Job Insecurity 1717 1.1566686080372743 1986
Psychiatric Symptoms 2607 1.2658227848101267 3300
Food Insecurity 731 1.7783857729138166 1300
Substance Abuse 1675 1.3707462686567164 2296
Legal Problems 2231 1.3415508740475124 2993
Social Isolation 1090 1.4220183486238531 1550
Barriers to Care 745 1.4805369127516779 1103
Pain 465 1.0086021505376344 469
Stigma/Shame 45 1.1111111111111112 50
Suicide Outcome 857 1.61610268378063 1385
Physical Isolation 30 1.2666666666666666 38
Exposure to suicide of family/friends 5 1.2 6
Demographics 8 1.0 8
Total EHRs with relations : 0
{}
dict_keys(['Housing Insecurity', 'Transitions of Care', 'Violence', 'Loss of Relationship', 'Financial Insecurity', 'Patient Disabi                                 lity', 'Job Insecurity', 'Psychiatric Symptoms', 'Food Insecurity', 'Substance Abuse', 'Legal Problems', 'Social Isolation', 'Barri                                 ers to Care', 'Pain', 'Stigma/Shame', 'Suicide Outcome', 'Physical Isolation', 'Exposure to suicide of family/friends', 'Demographi                                 cs'])
********************
Total unique files:  6533, files:  10369
5342 1123
791 273 59
********************
6221 2073 2075

02/10/2021 20:36:09 - INFO - __main__ -   Epoch 17, Loss: 10.887160826474428
02/10/2021 20:36:12 - INFO - __main__ -   ***** Running evaluation on dev*****
02/10/2021 20:36:12 - INFO - __main__ -     Num examples = 2073
02/10/2021 20:36:12 - INFO - __main__ -     Batch size = 8
02/10/2021 20:38:07 - INFO - __main__ -   
                      precision    recall  f1-score   support predicted

  Housing Insecurity     0.7589    0.7384    0.7485      1334      1298
 Transitions of Care     0.8027    0.8287    0.8155       648       669
    Social Isolation     0.7202    0.5789    0.6419       209       168
Financial Insecurity     0.7110    0.6907    0.7007       666       647
      Legal Problems     0.6978    0.7030    0.7004       404       407
Psychiatric Symptoms     0.7505    0.7293    0.7398       532       517
     Suicide Outcome     0.8151    0.7580    0.7855       157       146
Loss of Relationship     0.5912    0.5000    0.5418       214       181
  Patient Disability     0.8608    0.7907    0.8242       172       158
            Violence     0.7510    0.7206    0.7355       272       261
     Substance Abuse     0.6875    0.6898    0.6886       303       304
    Barriers to Care     0.6847    0.5241    0.5938       145       111
      Job Insecurity     0.7027    0.8100    0.7525       321       370
     Food Insecurity     0.7419    0.6866    0.7132       134       124
                Pain     0.9342    0.9221    0.9281        77        76

           micro avg     0.7432    0.7232    0.7331      5588      5437
           macro avg     0.7473    0.7114    0.7273      5588      5437
        weighted avg     0.7425    0.7232    0.7317      5588      5437

02/10/2021 20:38:11 - INFO - __main__ -   ***** Running evaluation on test*****
02/10/2021 20:38:11 - INFO - __main__ -     Num examples = 2076
02/10/2021 20:38:11 - INFO - __main__ -     Batch size = 8
02/10/2021 20:40:07 - INFO - __main__ -   
                      precision    recall  f1-score   support predicted

            Violence     0.7875    0.6655    0.7214       284       240
 Transitions of Care     0.8264    0.8384    0.8324       687       697
  Housing Insecurity     0.7729    0.7283    0.7499      1472      1387
      Legal Problems     0.6913    0.7466    0.7179       438       473
      Job Insecurity     0.7171    0.8189    0.7646       359       410
     Food Insecurity     0.6917    0.6917    0.6917       133       133
Psychiatric Symptoms     0.7759    0.7151    0.7443       523       482
Financial Insecurity     0.6711    0.6201    0.6446       566       523
Loss of Relationship     0.7235    0.5913    0.6508       208       170
    Social Isolation     0.7961    0.5500    0.6505       220       152
     Substance Abuse     0.7043    0.6658    0.6845       365       345
    Barriers to Care     0.7677    0.4663    0.5802       163        99
     Suicide Outcome     0.6913    0.6645    0.6776       155       149
                Pain     0.9020    0.9583    0.9293        96       102
  Patient Disability     0.8875    0.8023    0.8427       177       160

           micro avg     0.7561    0.7142    0.7345      5846      5522
           macro avg     0.7604    0.7015    0.7255      5846      5522
        weighted avg     0.7570    0.7142    0.7325      5846      5522

Relaxed Matching
                      precision    recall  f1-score   support predicted

  Housing Insecurity     0.8500    0.8010    0.8248      1472      1387
    Social Isolation     0.8750    0.6045    0.7151       220       152
Financial Insecurity     0.7850    0.7226    0.7525       566       521
Psychiatric Symptoms     0.8485    0.7820    0.8139       523       482
 Transitions of Care     0.8336    0.8457    0.8396       687       697
Loss of Relationship     0.7941    0.6490    0.7143       208       170
      Job Insecurity     0.7756    0.8858    0.8270       359       410
     Substance Abuse     0.8232    0.7781    0.8000       365       345
    Barriers to Care     0.8687    0.5276    0.6565       163        99
     Suicide Outcome     0.8255    0.7935    0.8092       155       149
      Legal Problems     0.8309    0.8973    0.8628       438       473
     Food Insecurity     0.7519    0.7519    0.7519       133       133
  Patient Disability     0.9125    0.8249    0.8665       177       160
            Violence     0.8833    0.7465    0.8092       284       240
                Pain     0.9020    0.9583    0.9293        96       102

           micro avg     0.8333    0.7869    0.8094      5846      5520
           macro avg     0.8373    0.7712    0.7982      5846      5520
        weighted avg     0.8349    0.7869    0.8074      5846      5520

Feb 10, 2021 ################################################################################################

Total EHRs: 20050, annotations: 10723
********************
No overlap: 2844, Single overlaps: 3815, More than 2 ann overlaps: 6, Overlap for single ann: 63
Counter({'Emily-Raelene': 1805, 'Emily-Heather': 1312, 'Heather-Raelene': 698})
Counter({'Emily': 1928, 'Raelene': 762, 'Heather': 154})
********************
Counter({'Housing Insecurity': 7117, 'Transitions of Care': 3277, 'Financial Insecurity': 3142, 'Psychiatric Symptoms': 2734, 'Legal Problems': 2370, 'Substance Abuse': 1782, 'Job Insecurity': 1734, 'Violence': 1481, 'Loss of Relationship': 1231, 'Social Isolation': 1139, 'Patient Disability': 938, 'Suicide Outcome': 938, 'Barriers to Care': 764, 'Food Insecurity': 732, 'Pain': 470, 'Stigma/Shame': 46, 'Physical Isolation': 30, 'Demographics': 8, 'Exposure to suicide of family/friends': 5})
29938
Housing Insecurity 7117 1.4036813264015737 9990
Legal Problems 2370 1.3354430379746836 3165
Job Insecurity 1734 1.1551326412918108 2003
Transitions of Care 3277 1.0387549588037839 3404
Social Isolation 1139 1.4135206321334504 1610
Psychiatric Symptoms 2734 1.2699341623994147 3472
Financial Insecurity 3142 1.3239974538510504 4160
Loss of Relationship 1231 1.354995938261576 1668
Substance Abuse 1782 1.3714927048260381 2444
Violence 1481 1.3463875759621877 1994
Patient Disability 938 1.20682302771855 1132
Suicide Outcome 938 1.6300639658848615 1529
Pain 470 1.0085106382978724 474
Food Insecurity 732 1.780054644808743 1303
Barriers to Care 764 1.4829842931937174 1133
Stigma/Shame 46 1.108695652173913 51
Physical Isolation 30 1.2666666666666666 38
Demographics 8 1.0 8
Exposure to suicide of family/friends 5 1.2 6
Total EHRs with relations : 0
{}
dict_keys(['Housing Insecurity', 'Legal Problems', 'Job Insecurity', 'Transitions of Care', 'Social Isolation', 'Psychiatric Symptoms', 'Financial Insecurity', 'Loss of Relationship', 'Substance Abuse', 'Violence', 'Patient Disability', 'Suicide Outcome', 'Pain', 'Food Insecurity', 'Barriers to Care', 'Stigma/Shame', 'Physical Isolation', 'Demographics', 'Exposure to suicide of family/friends'])

********************
Total unique files:  6728, files:  10723
5521 1138
771 305 62
********************
02/16/2021 02:14:06 - INFO - __main__ -   ***** Running evaluation on dev*****
02/16/2021 02:14:06 - INFO - __main__ -     Num examples = 2143
02/16/2021 02:14:06 - INFO - __main__ -     Batch size = 8
02/16/2021 02:16:07 - INFO - __main__ -   
                      precision    recall  f1-score   support predicted

Psychiatric Symptoms     0.7263    0.7425    0.7343       536       548
 Transitions of Care     0.8116    0.8224    0.8170       597       605
  Housing Insecurity     0.7847    0.7493    0.7666      1352      1291
      Legal Problems     0.7106    0.7689    0.7386       463       501
            Violence     0.6929    0.7239    0.7080       268       280
    Barriers to Care     0.5077    0.6188    0.5577       160       195
Loss of Relationship     0.6995    0.5820    0.6353       244       203
     Substance Abuse     0.6904    0.7699    0.7280       365       407
     Suicide Outcome     0.7626    0.7114    0.7361       149       139
  Patient Disability     0.8208    0.7982    0.8093       218       212
Financial Insecurity     0.5697    0.7749    0.6567       622       846
      Job Insecurity     0.7079    0.8256    0.7623       367       428
    Social Isolation     0.6394    0.6215    0.6303       214       208
     Food Insecurity     0.6838    0.7750    0.7266       120       136
                Pain     0.9375    0.9615    0.9494        78        80

           micro avg     0.7139    0.7544    0.7336      5753      6079
           macro avg     0.7164    0.7497    0.7304      5753      6079
        weighted avg     0.7217    0.7544    0.7352      5753      6079

02/16/2021 02:16:11 - INFO - __main__ -   ***** Running evaluation on test*****
02/16/2021 02:16:11 - INFO - __main__ -     Num examples = 2148
02/16/2021 02:16:11 - INFO - __main__ -     Batch size = 8
02/16/2021 02:18:12 - INFO - __main__ -   
                      precision    recall  f1-score   support predicted

  Housing Insecurity     0.7774    0.7183    0.7466      1473      1361
Psychiatric Symptoms     0.6901    0.6661    0.6779       605       584
     Substance Abuse     0.7385    0.7332    0.7358       416       413
            Violence     0.7014    0.6701    0.6854       291       278
Financial Insecurity     0.5532    0.7470    0.6357       668       902
    Social Isolation     0.6383    0.5357    0.5825       224       188
 Transitions of Care     0.8306    0.8273    0.8289       741       738
      Legal Problems     0.6545    0.7119    0.6820       479       521
    Barriers to Care     0.6284    0.7372    0.6785       156       183
      Job Insecurity     0.7153    0.8494    0.7766       352       418
     Suicide Outcome     0.7622    0.6944    0.7267       180       164
Loss of Relationship     0.6212    0.5041    0.5566       244       198
  Patient Disability     0.8241    0.8517    0.8376       209       216
                Pain     0.9020    0.9583    0.9293        96       102
     Food Insecurity     0.7107    0.8269    0.7644       104       121

           micro avg     0.7125    0.7297    0.7210      6238      6387
           macro avg     0.7165    0.7354    0.7230      6238      6387
        weighted avg     0.7193    0.7297    0.7216      6238      6387

Relaxed Matching

                      precision    recall  f1-score   support predicted

            Violence     0.8071    0.8433    0.8248       268       280
Financial Insecurity     0.6454    0.8778    0.7439       622       846
  Housing Insecurity     0.8552    0.8166    0.8354      1352      1291
  Patient Disability     0.8632    0.8394    0.8512       218       212
      Legal Problems     0.8164    0.8834    0.8485       463       501
    Social Isolation     0.7212    0.7009    0.7109       214       208
     Substance Abuse     0.7862    0.8767    0.8290       365       407
     Food Insecurity     0.7279    0.8250    0.7734       120       136
      Job Insecurity     0.7687    0.8965    0.8277       367       428
 Transitions of Care     0.8165    0.8275    0.8220       597       605
Loss of Relationship     0.7685    0.6393    0.6980       244       203
    Barriers to Care     0.6154    0.7500    0.6761       160       195
Psychiatric Symptoms     0.7865    0.8041    0.7952       536       548
     Suicide Outcome     0.8417    0.7852    0.8125       149       139
                Pain     0.9375    0.9615    0.9494        78        80

           micro avg     0.7829    0.8272    0.8044      5753      6079
           macro avg     0.7838    0.8218    0.7999      5753      6079
        weighted avg     0.7899    0.8272    0.8054      5753      6079

Feb 21, 2021 ################################################################################################

Total EHRs: 20050, annotations: 11645
********************
No overlap: 2853, Single overlaps: 4271, More than 2 ann overlaps: 6, Overlap for single ann: 63
Counter({'Emily-Raelene': 1929, 'Emily-Heather': 1468, 'Heather-Raelene': 874})
Counter({'Emily': 1937, 'Raelene': 737, 'Heather': 179})
********************
Counter({'Housing Insecurity': 7367, 'Transitions of Care': 3426, 'Financial Insecurity': 3228, 'Psychiatric Symptoms': 3066, 'Legal Problems': 2966, 'Substance Abuse': 2047, 'Violence': 1964, 'Job Insecurity': 1756, 'Social Isolation': 1500, 'Loss of Relationship': 1475, 'Suicide Outcome': 1147, 'Patient Disability': 988, 'Barriers to Care': 817, 'Food Insecurity': 736, 'Pain': 490, 'Stigma/Shame': 54, 'Physical Isolation': 32, 'Demographics': 8, 'Exposure to suicide of family/friends': 5})
33072
Suicide Outcome 1147 1.6120313862249347 1849
Housing Insecurity 7367 1.3998914076286142 10313
Psychiatric Symptoms 3066 1.2860404435746902 3943
Substance Abuse 2047 1.3815339521250611 2828
Transitions of Care 3426 1.0385288966725044 3558
Barriers to Care 817 1.5104039167686658 1234
Social Isolation 1500 1.4233333333333333 2135
Violence 1964 1.3391038696537678 2630
Patient Disability 988 1.2064777327935223 1192
Loss of Relationship 1475 1.3383050847457627 1974
Job Insecurity 1756 1.1531890660592254 2025
Legal Problems 2966 1.320971004720162 3918
Financial Insecurity 3228 1.322180916976456 4268
Food Insecurity 736 1.7798913043478262 1310
Pain 490 1.0081632653061225 494
Stigma/Shame 54 1.1111111111111112 60
Physical Isolation 32 1.25 40
Demographics 8 1.0 8
Exposure to suicide of family/friends 5 1.2 6
Total EHRs with relations : 0
{}
dict_keys(['Suicide Outcome', 'Housing Insecurity', 'Psychiatric Symptoms', 'Substance Abuse', 'Transitions of Care', 'Barriers to Care', 'Social Isolation', 'Violence', 'Patient Disability', 'Loss of Relationship', 'Job Insecurity', 'Legal Problems', 'Financial Insecurity', 'Food Insecurity', 'Pain', 'Stigma/Shame', 'Physical Isolation', 'Demographics', 'Exposure to suicide of family/friends'])
********************
Total unique files:  7193, files:  11645
5982 1142
775 295 72


02/21/2021 21:06:39 - INFO - __main__ -   ***** Running evaluation on dev*****
02/21/2021 21:06:39 - INFO - __main__ -     Num examples = 2328
02/21/2021 21:06:39 - INFO - __main__ -     Batch size = 8
02/21/2021 21:08:52 - INFO - __main__ -   
                      precision    recall  f1-score   support predicted

     Suicide Outcome     0.6520    0.7228    0.6856       184       204
      Legal Problems     0.7091    0.6790    0.6937       542       519
     Substance Abuse     0.7195    0.7906    0.7534       425       467
 Transitions of Care     0.7763    0.8944    0.8312       644       742
    Social Isolation     0.6617    0.6335    0.6473       281       269
Financial Insecurity     0.7514    0.5781    0.6535       685       527
  Housing Insecurity     0.7479    0.7224    0.7349      1351      1305
            Violence     0.6220    0.7602    0.6842       342       418
Psychiatric Symptoms     0.6949    0.7233    0.7088       589       613
     Food Insecurity     0.8125    0.7761    0.7939       134       128
  Patient Disability     0.8482    0.8190    0.8333       232       224
      Job Insecurity     0.6930    0.8371    0.7583       356       430
                Pain     0.9569    0.9569    0.9569       116       116
Loss of Relationship     0.5985    0.6586    0.6272       249       274
    Barriers to Care     0.6075    0.6348    0.6209       178       186

           micro avg     0.7208    0.7338    0.7273      6308      6422
           macro avg     0.7234    0.7458    0.7322      6308      6422
        weighted avg     0.7235    0.7338    0.7259      6308      6422

02/21/2021 21:08:55 - INFO - __main__ -   ***** Running evaluation on test*****
02/21/2021 21:08:55 - INFO - __main__ -     Num examples = 2331
02/21/2021 21:08:55 - INFO - __main__ -     Batch size = 8
02/21/2021 21:11:07 - INFO - __main__ -   
                      precision    recall  f1-score   support predicted

  Housing Insecurity     0.7558    0.7512    0.7535      1487      1478
     Substance Abuse     0.7453    0.7384    0.7419       432       428
      Job Insecurity     0.7213    0.8235    0.7690       374       427
  Patient Disability     0.7890    0.8152    0.8019       211       218
    Barriers to Care     0.6380    0.6047    0.6209       172       163
Financial Insecurity     0.7510    0.5766    0.6524       633       486
                Pain     0.9008    0.9646    0.9316       113       121
Psychiatric Symptoms     0.7433    0.7141    0.7284       661       635
            Violence     0.6781    0.7920    0.7306       375       438
Loss of Relationship     0.6288    0.6288    0.6288       299       299
    Social Isolation     0.6980    0.6341    0.6645       328       298
     Suicide Outcome     0.6930    0.7926    0.7395       188       215
 Transitions of Care     0.7762    0.8575    0.8148       744       822
      Legal Problems     0.7682    0.6397    0.6981       544       453
     Food Insecurity     0.6774    0.7636    0.7179       110       124

           micro avg     0.7383    0.7312    0.7347      6671      6605
           macro avg     0.7309    0.7398    0.7329      6671      6605
        weighted avg     0.7393    0.7312    0.7327      6671      6605

Relaxed Matching

                      precision    recall  f1-score   support predicted

Loss of Relationship     0.6722    0.6722    0.6722       299       299
 Transitions of Care     0.7786    0.8602    0.8174       744       822
Psychiatric Symptoms     0.8157    0.7837    0.7994       661       635
     Substance Abuse     0.8435    0.8356    0.8395       432       428
  Housing Insecurity     0.8214    0.8164    0.8189      1487      1478
Financial Insecurity     0.8498    0.6524    0.7382       633       486
     Food Insecurity     0.7097    0.8000    0.7521       110       124
    Barriers to Care     0.7485    0.7093    0.7284       172       163
      Legal Problems     0.9051    0.7537    0.8225       544       453
            Violence     0.7854    0.9173    0.8462       375       438
    Social Isolation     0.7584    0.6890    0.7220       328       298
  Patient Disability     0.8257    0.8531    0.8392       211       218
     Suicide Outcome     0.8000    0.9149    0.8536       188       215
      Job Insecurity     0.7728    0.8824    0.8240       374       427
                Pain     0.9008    0.9646    0.9316       113       121

           micro avg     0.8064    0.7987    0.8025      6671      6605
           macro avg     0.7992    0.8070    0.8003      6671      6605
        weighted avg     0.8096    0.7987    0.8013      6671      6605


March 15, 2021 ################################################################################################
Total EHRs: 30495, annotations: 13494
********************
No overlap: 2823, Single overlaps: 5210, More than 2 ann overlaps: 5, Overlap for single ann: 64
Counter({'Emily-Raelene': 2539, 'Emily-Heather': 1646, 'Heather-Raelene': 1025})
Counter({'Emily': 1439, 'Raelene': 1213, 'Heather': 171})
********************
Counter({'Housing Insecurity': 7890, 'Transitions of Care': 4685, 'Psychiatric Symptoms': 3762, 'Financial Insecurity': 3427, 'Legal Problems': 3231, 'Violence': 2821, 'Substance Abuse': 2439, 'Job Insecurity': 1918, 'Social Isolation': 1801, 'Loss of Relationship': 1718, 'Suicide Outcome': 1572, 'Patient Disability': 1162, 'Barriers to Care': 1058, 'Food Insecurity': 742, 'Pain': 541, 'Stigma/Shame': 62, 'Physical Isolation': 58, 'Demographics': 11, 'Exposure to suicide of family/friends': 5})
38903
Transitions of Care 4685 1.0345784418356456 4847
Substance Abuse 2439 1.4009840098400983 3417
Housing Insecurity 7890 1.3936628643852977 10996
Financial Insecurity 3427 1.3279836591771228 4551
Psychiatric Symptoms 3762 1.2955874534821903 4874
Suicide Outcome 1572 1.6011450381679388 2517
Social Isolation 1801 1.413659078289839 2546
Loss of Relationship 1718 1.3562281722933645 2330
Legal Problems 3231 1.330547818012999 4299
Barriers to Care 1058 1.4933837429111532 1580
Job Insecurity 1918 1.1511991657977059 2208
Food Insecurity 742 1.7816711590296497 1322
Violence 2821 1.3449131513647643 3794
Stigma/Shame 62 1.1290322580645162 70
Patient Disability 1162 1.2203098106712564 1418
Pain 541 1.0073937153419594 545
Physical Isolation 58 1.1551724137931034 67
Demographics 11 1.1818181818181819 13
Exposure to suicide of family/friends 5 1.2 6
Total EHRs with relations : 0

03/16/2021 17:19:04 - INFO - __main__ -   Epoch 17, Loss: 14.15778736770153
03/16/2021 17:19:08 - INFO - __main__ -   ***** Running evaluation on dev*****
03/16/2021 17:19:08 - INFO - __main__ -     Num examples = 2697
03/16/2021 17:19:08 - INFO - __main__ -     Batch size = 8
03/16/2021 17:21:45 - INFO - __main__ -   
                      precision    recall  f1-score   support predicted

  Housing Insecurity     0.7327    0.7867    0.7587      1627      1747
     Substance Abuse     0.7817    0.7384    0.7594       451       426
 Transitions of Care     0.8310    0.8765    0.8531       931       982
Financial Insecurity     0.7124    0.6621    0.6863       651       605
    Social Isolation     0.6821    0.5644    0.6177       365       302
Psychiatric Symptoms     0.7576    0.7458    0.7516       771       759
      Job Insecurity     0.7868    0.7754    0.7810       414       408
      Legal Problems     0.7186    0.6962    0.7073       609       590
            Violence     0.7946    0.7066    0.7480       542       482
Loss of Relationship     0.6634    0.5775    0.6175       355       309
     Suicide Outcome     0.7206    0.7626    0.7410       257       272
  Patient Disability     0.8848    0.8366    0.8600       257       243
     Food Insecurity     0.8194    0.8806    0.8489       134       144
                Pain     0.8991    0.9515    0.9245       103       109
    Barriers to Care     0.6291    0.6473    0.6381       207       213

           micro avg     0.7553    0.7473    0.7513      7674      7591
           macro avg     0.7609    0.7472    0.7529      7674      7591
        weighted avg     0.7545    0.7473    0.7498      7674      7591

03/16/2021 17:21:49 - INFO - __main__ -   ***** Running evaluation on test*****
03/16/2021 17:21:49 - INFO - __main__ -     Num examples = 2702
03/16/2021 17:21:49 - INFO - __main__ -     Batch size = 8
03/16/2021 17:24:26 - INFO - __main__ -   
                      precision    recall  f1-score   support predicted

  Housing Insecurity     0.7227    0.7686    0.7450      1543      1641
            Violence     0.7132    0.7214    0.7173       524       530
     Suicide Outcome     0.7556    0.7256    0.7403       277       266
Psychiatric Symptoms     0.7356    0.7636    0.7493       736       764
Financial Insecurity     0.6791    0.6657    0.6723       658       645
 Transitions of Care     0.8509    0.8595    0.8551       989       999
      Job Insecurity     0.7454    0.7738    0.7594       367       381
      Legal Problems     0.6692    0.6631    0.6662       656       650
Loss of Relationship     0.5682    0.5335    0.5503       328       308
  Patient Disability     0.8063    0.7716    0.7885       232       222
    Social Isolation     0.7169    0.5432    0.6181       359       272
     Substance Abuse     0.7624    0.7642    0.7633       441       442
     Food Insecurity     0.7895    0.6977    0.7407       129       114
    Barriers to Care     0.6068    0.6762    0.6396       210       234
                Pain     0.8477    0.9624    0.9014       133       151

           micro avg     0.7320    0.7360    0.7340      7582      7619
           macro avg     0.7313    0.7260    0.7271      7582      7619
        weighted avg     0.7319    0.7360    0.7330      7582      7619

Relaxed Matching

                      precision    recall  f1-score   support predicted

    Social Isolation     0.7794    0.5905    0.6719       359       272
            Violence     0.8302    0.8397    0.8349       524       530
     Suicide Outcome     0.8534    0.8195    0.8361       277       266
Loss of Relationship     0.6364    0.5976    0.6164       328       308
      Job Insecurity     0.8241    0.8556    0.8396       367       381
                Pain     0.8477    0.9624    0.9014       133       151
      Legal Problems     0.8108    0.8034    0.8070       656       650
Psychiatric Symptoms     0.8207    0.8519    0.8360       736       764
Financial Insecurity     0.7774    0.7644    0.7709       658       647
 Transitions of Care     0.8549    0.8635    0.8592       989       999
  Housing Insecurity     0.7989    0.8496    0.8235      1543      1641
  Patient Disability     0.8829    0.8448    0.8634       232       222
     Substance Abuse     0.8552    0.8571    0.8562       441       442
     Food Insecurity     0.8509    0.7519    0.7984       129       114
    Barriers to Care     0.6923    0.7714    0.7297       210       234

           micro avg     0.8094    0.8140    0.8117      7582      7621
           macro avg     0.8077    0.8016    0.8030      7582      7621
        weighted avg     0.8095    0.8140    0.8107      7582      7621


March 21, 2021 ################################################################################################
Total EHRs: 30495, annotations: 13785
********************
No overlap: 2934, Single overlaps: 5297, More than 2 ann overlaps: 4, Overlap for single ann: 67
Counter({'Emily-Raelene': 2613, 'Emily-Heather': 1655, 'Heather-Raelene': 1029})
Counter({'Emily': 1505, 'Raelene': 1261, 'Heather': 168})
********************
Violence 3019 1.3431599867505797 4055
Job Insecurity 1930 1.1512953367875647 2222
Barriers to Care 1067 1.4910965323336458 1591
Psychiatric Symptoms 3965 1.2981084489281212 5147
Transitions of Care 4747 1.0360227512112914 4918
Housing Insecurity 8013 1.3914888306501934 11150
Financial Insecurity 3423 1.3301197779725387 4553
Patient Disability 1182 1.22165820642978 1444
Substance Abuse 2532 1.4016587677725119 3549
Suicide Outcome 1677 1.6082289803220036 2697
Social Isolation 1845 1.4097560975609755 2601
Loss of Relationship 1785 1.3411764705882352 2394
Legal Problems 3239 1.328805186786045 4304
Pain 758 1.0131926121372032 768
Food Insecurity 745 1.7838926174496643 1329
Stigma/Shame 68 1.1176470588235294 76
Physical Isolation 58 1.1551724137931034 67
Demographics 11 1.1818181818181819 13
Exposure to suicide of family/friends 5 1.2 6
Total EHRs with relations : 0
{}
dict_keys(['Violence', 'Job Insecurity', 'Barriers to Care', 'Psychiatric Symptoms', 'Transitions of Care', 'Housing Insecurity', 'Financial Insecurity', 'Patient Disability', 'Substance Abuse', 'Suicide Outcome', 'Social Isolation', 'Loss of Relationship', 'Legal Problems', 'Pain', 'Food Insecurity', 'Stigma/Shame', 'Physical Isolation', 'Demographics', 'Exposure to suicide of family/friends'])
********************
Total unique files:  8302, files:  13785

03/22/2021 05:00:35 - INFO - __main__ -   Epoch 8, Loss: 18.123821210116148
03/22/2021 05:00:40 - INFO - __main__ -   ***** Running evaluation on dev*****
03/22/2021 05:00:40 - INFO - __main__ -     Num examples = 2756
03/22/2021 05:00:40 - INFO - __main__ -     Batch size = 8
03/22/2021 05:03:24 - INFO - __main__ -   
                      precision    recall  f1-score   support predicted

     Suicide Outcome     0.7196    0.7196    0.7196       271       271
 Transitions of Care     0.8239    0.9016    0.8610       996      1090
Loss of Relationship     0.4897    0.6109    0.5436       311       388
    Social Isolation     0.5267    0.5983    0.5602       346       393
Psychiatric Symptoms     0.7521    0.7677    0.7598       818       835
            Violence     0.7069    0.6821    0.6943       541       522
Financial Insecurity     0.6712    0.5833    0.6242       672       584
  Housing Insecurity     0.7550    0.7482    0.7516      1672      1657
     Food Insecurity     0.8105    0.8732    0.8407       142       153
     Substance Abuse     0.7247    0.7570    0.7405       539       563
      Legal Problems     0.7247    0.6645    0.6933       614       563
      Job Insecurity     0.7297    0.7702    0.7494       396       418
    Barriers to Care     0.6457    0.6792    0.6621       212       223
  Patient Disability     0.7838    0.8219    0.8024       247       259
                Pain     0.8650    0.9251    0.8941       187       200

           micro avg     0.7261    0.7402    0.7331      7964      8119
           macro avg     0.7153    0.7402    0.7264      7964      8119
        weighted avg     0.7274    0.7402    0.7327      7964      8119

03/22/2021 05:03:28 - INFO - __main__ -   ***** Running evaluation on test*****
03/22/2021 05:03:28 - INFO - __main__ -     Num examples = 2759
03/22/2021 05:03:28 - INFO - __main__ -     Batch size = 8
03/22/2021 05:06:13 - INFO - __main__ -   
                      precision    recall  f1-score   support predicted

 Transitions of Care     0.8254    0.8785    0.8511       963      1025
      Legal Problems     0.7271    0.6661    0.6953       620       568
    Barriers to Care     0.5798    0.7225    0.6434       191       238
  Housing Insecurity     0.7770    0.7306    0.7531      1407      1323
Psychiatric Symptoms     0.6817    0.7401    0.7097       735       798
      Job Insecurity     0.7550    0.8149    0.7838       416       449
     Suicide Outcome     0.6412    0.6774    0.6588       248       262
  Patient Disability     0.8423    0.8529    0.8476       238       241
    Social Isolation     0.5569    0.6215    0.5875       362       404
            Violence     0.7495    0.7186    0.7338       558       535
     Substance Abuse     0.7423    0.7740    0.7578       469       489
Financial Insecurity     0.7621    0.6312    0.6905       751       622
Loss of Relationship     0.6029    0.6308    0.6165       390       408
                Pain     0.8545    0.9724    0.9097       145       165
     Food Insecurity     0.7762    0.7351    0.7551       151       143

           micro avg     0.7353    0.7378    0.7366      7644      7670
           macro avg     0.7249    0.7445    0.7329      7644      7670
        weighted avg     0.7379    0.7378    0.7363      7644      7670

Relaxed Matching

                      precision    recall  f1-score   support predicted

    Social Isolation     0.6312    0.7044    0.6658       362       404
  Patient Disability     0.8672    0.8782    0.8727       238       241
     Substance Abuse     0.8200    0.8550    0.8372       469       489
      Legal Problems     0.8803    0.8065    0.8418       620       568
  Housing Insecurity     0.8571    0.8060    0.8308      1407      1323
     Suicide Outcome     0.7443    0.7863    0.7647       248       262
      Job Insecurity     0.7996    0.8630    0.8301       416       449
Financial Insecurity     0.8585    0.7111    0.7779       751       622
Psychiatric Symptoms     0.7632    0.8286    0.7945       735       798
 Transitions of Care     0.8293    0.8827    0.8551       963      1025
            Violence     0.8393    0.8047    0.8216       558       535
Loss of Relationship     0.6765    0.7077    0.6917       390       408
    Barriers to Care     0.6303    0.7853    0.6993       191       238
                Pain     0.8606    0.9793    0.9161       145       165
     Food Insecurity     0.8252    0.7815    0.8027       151       143

           micro avg     0.8059    0.8086    0.8072      7644      7670
           macro avg     0.7922    0.8120    0.8001      7644      7670
        weighted avg     0.8104    0.8086    0.8078      7644      7670

April 12, 2021 ################################################################################################
Total EHRs: 30495, annotations: 15578
********************
No overlap: 3197, Single overlaps: 5881, More than 2 ann overlaps: 9, Overlap for single ann: 217
Counter({'Emily-Raelene': 2828, 'Emily-Heather': 1826, 'Heather-Raelene': 1227})
Counter({'Emily': 1630, 'Raelene': 1344, 'Heather': 223})
********************
Counter({'Housing Insecurity': 8419, 'Transitions of Care': 5318, 'Psychiatric Symptoms': 4572, 'Financial Insecurity': 3747, 'Violence': 3335, 'Legal Problems': 3275, 'Substance Abuse': 2786, 'Loss of Relationship': 2284, 'Social Isolation': 2114, 'Patient Disability': 2104, 'Job Insecurity': 2033, 'Suicide Outcome': 1972, 'Barriers to Care': 1293, 'Pain': 1163, 'Food Insecurity': 752, 'Stigma/Shame': 150, 'Physical Isolation': 66, 'Demographics': 11, 'Exposure to suicide of family/friends': 5})
45399
Legal Problems 3275 1.3334351145038168 4367
Housing Insecurity 8419 1.3880508373916143 11686
Job Insecurity 2033 1.146581406787998 2331
Financial Insecurity 3747 1.3346677341873499 5001
Social Isolation 2114 1.403027436140019 2966
Substance Abuse 2786 1.405240488155061 3915
Violence 3335 1.3559220389805098 4522
Transitions of Care 5318 1.0385483264385107 5523
Psychiatric Symptoms 4572 1.3070866141732282 5976
Loss of Relationship 2284 1.3975481611208407 3192
Patient Disability 2104 1.2385931558935361 2606
Barriers to Care 1293 1.4586233565351894 1886
Suicide Outcome 1972 1.6627789046653143 3279
Pain 1163 1.0240756663800517 1191
Food Insecurity 752 1.7859042553191489 1343
Stigma/Shame 150 1.1533333333333333 173
Physical Isolation 66 1.2272727272727273 81
Demographics 11 1.1818181818181819 13
Exposure to suicide of family/friends 5 1.2 6
Total EHRs with relations : 0
{}
dict_keys(['Legal Problems', 'Housing Insecurity', 'Job Insecurity', 'Financial Insecurity', 'Social Isolation', 'Substance Abuse', 'Violence', 'Transitions of Care', 'Psychiatric Symptoms', 'Loss of Relationship', 'Patient Disability', 'Barriers to Care', 'Suicide Outcome', 'Pain', 'Food Insecurity', 'Stigma/Shame', 'Physical Isolation', 'Demographics', 'Exposure to suicide of family/friends'])
********************
Total unique files:  9304, files:  15578
7799 1279
652 538 89

04/13/2021 04:13:50 - INFO - __main__ -   Epoch 7, Loss: 21.32294623926282
04/13/2021 04:13:56 - INFO - __main__ -   ***** Running evaluation on dev*****
04/13/2021 04:13:56 - INFO - __main__ -     Num examples = 3115
04/13/2021 04:13:56 - INFO - __main__ -     Batch size = 8
04/13/2021 04:16:05 - INFO - __main__ -   
                      precision    recall  f1-score   support predicted

    Barriers to Care     0.6094    0.6241    0.6167       290       297
 Transitions of Care     0.8546    0.8445    0.8495      1016      1004
            Violence     0.7099    0.7415    0.7254       650       679
     Substance Abuse     0.7495    0.7495    0.7495       539       539
  Patient Disability     0.8460    0.7807    0.8120       415       383
  Housing Insecurity     0.7454    0.7750    0.7599      1609      1673
     Food Insecurity     0.8046    0.8187    0.8116       171       174
Psychiatric Symptoms     0.6990    0.7587    0.7276       808       877
      Legal Problems     0.6431    0.7880    0.7082       599       734
      Job Insecurity     0.7459    0.8205    0.7814       390       429
Financial Insecurity     0.6053    0.7117    0.6542       711       836
                Pain     0.8168    0.9331    0.8711       239       273
     Suicide Outcome     0.6565    0.6146    0.6349       314       294
    Social Isolation     0.6923    0.5448    0.6098       413       325
Loss of Relationship     0.5919    0.4544    0.5141       482       370

           micro avg     0.7208    0.7410    0.7308      8646      8887
           macro avg     0.7180    0.7307    0.7217      8646      8887
        weighted avg     0.7220    0.7410    0.7292      8646      8887

04/13/2021 04:16:11 - INFO - __main__ -   ***** Running evaluation on test*****
04/13/2021 04:16:11 - INFO - __main__ -     Num examples = 3118
04/13/2021 04:16:11 - INFO - __main__ -     Batch size = 8
04/13/2021 04:18:22 - INFO - __main__ -   
                      precision    recall  f1-score   support predicted

    Barriers to Care     0.6459    0.5488    0.5934       246       209
  Housing Insecurity     0.7527    0.7892    0.7705      1689      1771
     Substance Abuse     0.7483    0.7815    0.7646       563       588
Loss of Relationship     0.6369    0.4712    0.5417       469       347
      Job Insecurity     0.7077    0.7765    0.7405       452       496
 Transitions of Care     0.8362    0.8307    0.8334      1069      1062
    Social Isolation     0.5974    0.4477    0.5118       411       308
            Violence     0.6753    0.7335    0.7032       638       693
                Pain     0.8657    0.9533    0.9074       257       283
  Patient Disability     0.8719    0.7868    0.8272       441       398
      Legal Problems     0.6301    0.7441    0.6824       680       803
     Suicide Outcome     0.7086    0.7168    0.7126       346       350
Financial Insecurity     0.6065    0.7008    0.6502       772       892
Psychiatric Symptoms     0.7102    0.7716    0.7396       845       918
     Food Insecurity     0.7107    0.8129    0.7584       139       159

           micro avg     0.7192    0.7399    0.7294      9017      9277
           macro avg     0.7136    0.7244    0.7158      9017      9277
        weighted avg     0.7195    0.7399    0.7272      9017      9277

Relaxed Matching
                      precision    recall  f1-score   support predicted

Loss of Relationship     0.7954    0.5885    0.6765       469       347
Psychiatric Symptoms     0.7810    0.8485    0.8134       845       918
Financial Insecurity     0.7074    0.8174    0.7584       772       892
      Job Insecurity     0.7903    0.8673    0.8270       452       496
  Housing Insecurity     0.8204    0.8603    0.8399      1689      1771
      Legal Problems     0.7696    0.9088    0.8334       680       803
 Transitions of Care     0.8437    0.8382    0.8409      1069      1062
  Patient Disability     0.9045    0.8163    0.8582       441       398
     Food Insecurity     0.7862    0.8993    0.8389       139       159
    Barriers to Care     0.7799    0.6626    0.7165       246       209
     Substance Abuse     0.8418    0.8792    0.8601       563       588
     Suicide Outcome     0.8143    0.8237    0.8190       346       350
    Social Isolation     0.7208    0.5401    0.6175       411       308
            Violence     0.7807    0.8480    0.8129       638       693
                Pain     0.8763    0.9650    0.9185       257       283

           micro avg     0.8000    0.8231    0.8114      9017      9277
           macro avg     0.8008    0.8109    0.8021      9017      9277
        weighted avg     0.8010    0.8231    0.8091      9017      9277

May 1, 2021 ################################################################################################
Total EHRs: 33806, annotations: 18522
********************
No overlap: 3802, Single overlaps: 6421, More than 2 ann overlaps: 11, Overlap for single ann: 674
Counter({'Emily-Raelene': 3037, 'Emily-Heather': 1990, 'Heather-Raelene': 1394})
Counter({'Emily': 2066, 'Raelene': 1496, 'Heather': 240})
********************
Counter({'Housing Insecurity': 9096, 'Transitions of Care': 6223, 'Psychiatric Symptoms': 5407, 'Patient Disability': 5231, 'Substance Abuse': 4367, 'Financial Insecurity': 4341, 'Violence': 3508, 'Legal Problems': 3321, 'Social Isolation': 2515, 'Loss of Relationship': 2489, 'Suicide Outcome': 2288, 'Job Insecurity': 2245, 'Barriers to Care': 1639, 'Pain': 1467, 'Food Insecurity': 773, 'Stigma/Shame': 199, 'Physical Isolation': 97, 'Demographics': 13, 'Exposure to suicide of family/friends': 5})
55224
Food Insecurity 773 1.7761966364812418 1373
Barriers to Care 1639 1.4752898108602805 2418
Pain 1467 1.0415814587593728 1528
Patient Disability 5231 1.2450774230548651 6513
Transitions of Care 6223 1.0350313353687932 6441
Violence 3508 1.36345496009122 4783
Social Isolation 2515 1.4369781312127237 3614
Housing Insecurity 9096 1.3586191732629727 12358
Financial Insecurity 4341 1.2976272748214697 5633
Stigma/Shame 199 1.1457286432160805 228
Loss of Relationship 2489 1.4021695460024106 3490
Substance Abuse 4367 1.4137852072360888 6174
Job Insecurity 2245 1.1403118040089086 2560
Legal Problems 3321 1.3369467028003614 4440
Physical Isolation 97 1.2783505154639174 124
Psychiatric Symptoms 5407 1.3415942297022379 7254
Suicide Outcome 2288 1.6993006993006994 3888
Exposure to suicide of family/friends 5 1.2 6
Demographics 13 1.1538461538461537 15
Total EHRs with relations : 0
{}
dict_keys(['Food Insecurity', 'Barriers to Care', 'Pain', 'Patient Disability', 'Transitions of Care', 'Violence', 'Social Isolation', 'Housing Insecurity', 'Financial Insecurity', 'Stigma/Shame', 'Loss of Relationship', 'Substance Abuse', 'Job Insecurity', 'Legal Problems', 'Physical Isolation', 'Psychiatric Symptoms', 'Suicide Outcome', 'Exposure to suicide of family/friends', 'Demographics'])
********************
Total unique files:  10908, files:  18522
8703 1520
826 598 96

05/03/2021 18:24:58 - INFO - __main__ -   Epoch 12, Loss: 61.59578678011894
05/03/2021 18:25:04 - INFO - __main__ -   ***** Running evaluation on dev*****
05/03/2021 18:25:04 - INFO - __main__ -     Num examples = 3704
05/03/2021 18:25:04 - INFO - __main__ -     Batch size = 8
05/03/2021 18:28:35 - INFO - __main__ -   
                      precision    recall  f1-score   support predicted

  Housing Insecurity     0.7825    0.7247    0.7525      1718      1591
                Pain     0.7729    0.8877    0.8263       276       317
    Barriers to Care     0.6020    0.5495    0.5746       333       304
  Patient Disability     0.8295    0.8891    0.8582      1001      1073
     Food Insecurity     0.8235    0.8235    0.8235       136       136
 Transitions of Care     0.8322    0.8764    0.8537      1222      1287
            Violence     0.7404    0.7555    0.7479       638       651
     Substance Abuse     0.7656    0.7869    0.7761       793       815
     Suicide Outcome     0.6958    0.7028    0.6992       397       401
Psychiatric Symptoms     0.7252    0.7750    0.7493      1178      1259
Loss of Relationship     0.5529    0.6447    0.5953       470       548
Financial Insecurity     0.6983    0.6943    0.6963       870       865
      Job Insecurity     0.7781    0.7376    0.7573       423       401
    Social Isolation     0.6601    0.5685    0.6109       533       459
      Legal Problems     0.5994    0.6385    0.6184       628       669

           micro avg     0.7391    0.7505    0.7447     10616     10776
           macro avg     0.7239    0.7370    0.7293     10616     10776
        weighted avg     0.7396    0.7505    0.7441     10616     10776

05/03/2021 18:28:36 - INFO - __main__ -   
              precision    recall  f1-score   support predicted

           y     0.7222    0.7357    0.7289      7590      7732
           n     0.6850    0.5949    0.6367      2683      2330
         N/A     0.2018    0.0772    0.1117       298       114
    declined     0.5000    0.0682    0.1200        44         6

   micro avg     0.7074    0.6789    0.6929     10615     10182
   macro avg     0.5272    0.3690    0.3993     10615     10182
weighted avg     0.6973    0.6789    0.6857     10615     10182

05/03/2021 18:28:37 - INFO - __main__ -   
              precision    recall  f1-score   support predicted

         N/A     0.5872    0.3646    0.4499       277       172
     History     0.5053    0.4908    0.4980       872       847
     Current     0.7456    0.7309    0.7382      9466      9280

   micro avg     0.7230    0.7016    0.7122     10615     10299
   macro avg     0.6127    0.5288    0.5620     10615     10299
weighted avg     0.7217    0.7016    0.7109     10615     10299

05/03/2021 18:28:43 - INFO - __main__ -   ***** Running evaluation on test*****
05/03/2021 18:28:43 - INFO - __main__ -     Num examples = 3707
05/03/2021 18:28:43 - INFO - __main__ -     Batch size = 8
05/03/2021 18:32:15 - INFO - __main__ -   
                      precision    recall  f1-score   support predicted

  Housing Insecurity     0.8016    0.7456    0.7726      1859      1729
                Pain     0.8343    0.8964    0.8643       309       332
Loss of Relationship     0.5196    0.5879    0.5517       495       560
 Transitions of Care     0.7791    0.8933    0.8323      1153      1322
     Substance Abuse     0.7337    0.7849    0.7584       860       920
Psychiatric Symptoms     0.7087    0.7729    0.7394      1017      1109
  Patient Disability     0.8457    0.9038    0.8738      1019      1089
    Barriers to Care     0.6556    0.6061    0.6299       358       331
    Social Isolation     0.5850    0.5838    0.5844       495       494
Financial Insecurity     0.6404    0.7162    0.6762       761       851
     Food Insecurity     0.7430    0.8160    0.7778       163       179
     Suicide Outcome     0.7052    0.7370    0.7207       422       441
      Legal Problems     0.6695    0.7022    0.6855       675       708
            Violence     0.7290    0.7258    0.7274       671       668
      Job Insecurity     0.7807    0.7841    0.7824       454       456

           micro avg     0.7306    0.7635    0.7467     10711     11189
           macro avg     0.7154    0.7504    0.7318     10711     11189
        weighted avg     0.7322    0.7635    0.7466     10711     11189

05/03/2021 18:32:17 - INFO - __main__ -   
              precision    recall  f1-score   support predicted

         N/A     0.2033    0.0962    0.1305       260       123
           y     0.7153    0.7365    0.7257      7798      8029
           n     0.6948    0.6341    0.6631      2613      2385
    declined     0.1250    0.0270    0.0444        37         8

   micro avg     0.7040    0.6935    0.6987     10708     10545
   macro avg     0.4346    0.3734    0.3909     10708     10545
weighted avg     0.6958    0.6935    0.6936     10708     10545

05/03/2021 18:32:18 - INFO - __main__ -   
              precision    recall  f1-score   support predicted

     Current     0.7357    0.7373    0.7365      9499      9520
         N/A     0.5200    0.3264    0.4010       239       150
     History     0.4638    0.4619    0.4628       970       966

   micro avg     0.7079    0.7032    0.7056     10708     10636
   macro avg     0.5732    0.5085    0.5335     10708     10636
weighted avg     0.7063    0.7032    0.7042     10708     10636

Relaxed Matching
                      precision    recall  f1-score   support predicted

      Legal Problems     0.8333    0.8741    0.8532       675       708
 Transitions of Care     0.7867    0.9020    0.8404      1153      1322
      Job Insecurity     0.8289    0.8326    0.8308       454       456
Loss of Relationship     0.6429    0.7273    0.6825       495       560
    Social Isolation     0.6761    0.6747    0.6754       495       494
     Food Insecurity     0.7933    0.8712    0.8304       163       179
  Housing Insecurity     0.8861    0.8241    0.8540      1859      1729
    Barriers to Care     0.7583    0.7011    0.7286       358       331
Psychiatric Symptoms     0.7746    0.8446    0.8081      1017      1109
Financial Insecurity     0.7380    0.8252    0.7792       761       851
     Substance Abuse     0.8174    0.8744    0.8449       860       920
                Pain     0.8614    0.9256    0.8924       309       332
            Violence     0.8174    0.8137    0.8155       671       668
  Patient Disability     0.8852    0.9460    0.9146      1019      1089
     Suicide Outcome     0.8050    0.8412    0.8227       422       441

           micro avg     0.8055    0.8418    0.8233     10711     11189
           macro avg     0.7936    0.8319    0.8115     10711     11189
        weighted avg     0.8081    0.8418    0.8236     10711     11189

05/04/2021 00:46:29 - INFO - __main__ -   
              precision    recall  f1-score   support predicted

           n     0.7468    0.6816    0.7127      2613      2385
           y     0.7962    0.8198    0.8079      7798      8029
         N/A     0.2439    0.1154    0.1567       260       123
    declined     0.1250    0.0270    0.0444        37         8

   micro avg     0.7779    0.7662    0.7720     10708     10545
   macro avg     0.4780    0.4110    0.4304     10708     10545
weighted avg     0.7684    0.7662    0.7662     10708     10545

05/04/2021 00:49:50 - INFO - __main__ -   
              precision    recall  f1-score   support predicted

     Current     0.8112    0.8130    0.8121      9499      9520
     History     0.5455    0.5433    0.5444       970       966
         N/A     0.5267    0.3305    0.4062       239       150

   micro avg     0.7830    0.7778    0.7804     10708     10636
   macro avg     0.6278    0.5623    0.5876     10708     10636
weighted avg     0.7808    0.7778    0.7788     10708     10636

May 16, 2021 ################################################################################################
Total EHRs: 33806, annotations: 19936
********************
No overlap: 4153, Single overlaps: 6699, More than 2 ann overlaps: 11, Overlap for single ann: 826
Counter({'Emily-Raelene': 3149, 'Emily-Heather': 2068, 'Heather-Raelene': 1482})
Counter({'Emily': 2446, 'Raelene': 1451, 'Heather': 256})
********************
Counter({'Housing Insecurity': 9368, 'Transitions of Care': 6607, 'Psychiatric Symptoms': 6467, 'Patient Disability': 6246, 'Substance Abuse': 4709, 'Financial Insecurity': 4635, 'Violence': 3610, 'Legal Problems': 3350, 'Social Isolation': 2777, 'Loss of Relationship': 2619, 'Suicide Outcome': 2587, 'Job Insecurity': 2338, 'Barriers to Care': 1772, 'Pain': 1556, 'Food Insecurity': 778, 'Stigma/Shame': 199, 'Physical Isolation': 102, 'Demographics': 13, 'Exposure to suicide of family/friends': 5})
59738
Housing Insecurity 9368 1.354931682322801 12693
Psychiatric Symptoms 6467 1.3415803309107779 8676
Substance Abuse 4709 1.4236568273518795 6704
Transitions of Care 6607 1.037233237475405 6853
Financial Insecurity 4635 1.3042071197411003 6045
Legal Problems 3350 1.3364179104477611 4477
Suicide Outcome 2587 1.6961731735601082 4388
Violence 3610 1.3606648199445983 4912
Food Insecurity 778 1.7802056555269923 1385
Social Isolation 2777 1.4418437162405473 4004
Patient Disability 6246 1.2473583093179634 7791
Pain 1556 1.0430591259640103 1623
Job Insecurity 2338 1.1407185628742516 2667
Barriers to Care 1772 1.4892776523702032 2639
Loss of Relationship 2619 1.4035891561664757 3676
Stigma/Shame 199 1.1457286432160805 228
Physical Isolation 102 1.3137254901960784 134
Demographics 13 1.1538461538461537 15
Exposure to suicide of family/friends 5 1.2 6
Total EHRs with relations : 0
dict_keys(['Housing Insecurity', 'Psychiatric Symptoms', 'Substance Abuse', 'Transitions of Care', 'Financial Insecurity', 'Legal Problems', 'Suicide Outcome', 'Violence', 'Food Insecurity', 'Social Isolation', 'Patient Disability', 'Pain', 'Job Insecurity', 'Barriers to Care', 'Loss of Relationship', 'Stigma/Shame', 'Physical Isolation', 'Demographics', 'Exposure to suicide of family/friends'])
********************
Total unique files:  11689, files:  19936
9192 1660
978 580 102

05/17/2021 15:52:57 - INFO - __main__ -   Epoch 6, Loss: 23.088394306600094
05/17/2021 15:53:04 - INFO - __main__ -   ***** Running evaluation on dev*****
05/17/2021 15:53:04 - INFO - __main__ -     Num examples = 3987
05/17/2021 15:53:04 - INFO - __main__ -     Batch size = 8
05/17/2021 15:55:24 - INFO - __main__ -   
                      precision    recall  f1-score   support predicted

  Housing Insecurity     0.7031    0.8275    0.7603      1826      2149
     Suicide Outcome     0.6498    0.7118    0.6794       451       494
Psychiatric Symptoms     0.7604    0.8362    0.7965      1355      1490
      Legal Problems     0.5809    0.6880    0.6299       673       797
Financial Insecurity     0.6890    0.7738    0.7290      1366      1534
     Food Insecurity     0.7171    0.8212    0.7656       179       205
                Pain     0.8333    0.8742    0.8533       326       342
  Patient Disability     0.8608    0.9184    0.8887      1373      1465
 Transitions of Care     0.7745    0.9127    0.8379      1317      1552
     Substance Abuse     0.7239    0.7923    0.7566       963      1054
            Violence     0.6778    0.7707    0.7213       737       838
    Barriers to Care     0.5339    0.6396    0.5820       369       442
    Social Isolation     0.5145    0.6642    0.5798      1069      1380

           micro avg     0.7027    0.8045    0.7502     12004     13742
           macro avg     0.6938    0.7870    0.7369     12004     13742
        weighted avg     0.7068    0.8045    0.7520     12004     13742

05/17/2021 15:55:26 - INFO - __main__ -   
              precision    recall  f1-score   support predicted

         n_y     0.6559    0.6542    0.6550      3383      3374
           y     0.7023    0.7746    0.7367      8620      9507

   micro avg     0.6902    0.7406    0.7145     12003     12881
   macro avg     0.6791    0.7144    0.6959     12003     12881
weighted avg     0.6892    0.7406    0.7137     12003     12881

05/17/2021 15:55:27 - INFO - __main__ -   
              precision    recall  f1-score   support predicted

     Current     0.7215    0.7712    0.7455     10790     11533
  notCurrent     0.5280    0.5829    0.5541      1213      1339

   micro avg     0.7014    0.7521    0.7259     12003     12872
   macro avg     0.6248    0.6770    0.6498     12003     12872
weighted avg     0.7019    0.7521    0.7262     12003     12872

05/17/2021 15:55:34 - INFO - __main__ -   ***** Running evaluation on test*****
05/17/2021 15:55:34 - INFO - __main__ -     Num examples = 3990
05/17/2021 15:55:34 - INFO - __main__ -     Batch size = 8
05/17/2021 15:57:57 - INFO - __main__ -   
                      precision    recall  f1-score   support predicted

  Housing Insecurity     0.6921    0.8435    0.7604      1847      2251
     Substance Abuse     0.7353    0.8082    0.7700       928      1020
Psychiatric Symptoms     0.7431    0.7821    0.7621      1198      1261
      Legal Problems     0.6738    0.7271    0.6995       733       791
  Patient Disability     0.8465    0.8970    0.8711      1107      1173
                Pain     0.7879    0.9196    0.8487       311       363
     Suicide Outcome     0.5775    0.6946    0.6307       429       516
            Violence     0.6651    0.7463    0.7034       753       845
 Transitions of Care     0.7716    0.9168    0.8380      1371      1629
Financial Insecurity     0.6426    0.7414    0.6885      1392      1606
    Barriers to Care     0.6235    0.6848    0.6527       387       425
    Social Isolation     0.4986    0.6627    0.5690      1082      1438
     Food Insecurity     0.6641    0.7727    0.7143       110       128

           micro avg     0.6896    0.7961    0.7391     11648     13446
           macro avg     0.6863    0.7844    0.7314     11648     13446
        weighted avg     0.6938    0.7961    0.7407     11648     13446

05/17/2021 15:57:59 - INFO - __main__ -   
              precision    recall  f1-score   support predicted

           y     0.6937    0.7612    0.7258      8562      9395
         n_y     0.6147    0.6263    0.6205      3080      3138

   micro avg     0.6739    0.7255    0.6987     11642     12533
   macro avg     0.6542    0.6937    0.6732     11642     12533
weighted avg     0.6728    0.7255    0.6980     11642     12533

05/17/2021 15:58:00 - INFO - __main__ -   
              precision    recall  f1-score   support predicted

     Current     0.7036    0.7609    0.7312     10331     11172
  notCurrent     0.5237    0.5400    0.5317      1311      1352

   micro avg     0.6842    0.7360    0.7092     11642     12524
   macro avg     0.6137    0.6505    0.6314     11642     12524
weighted avg     0.6834    0.7360    0.7087     11642     12524

Relaxed Matching

                      precision    recall  f1-score   support predicted

     Suicide Outcome     0.7151    0.8601    0.7810       429       516
Psychiatric Symptoms     0.8168    0.8598    0.8377      1198      1261
  Housing Insecurity     0.7597    0.9258    0.8346      1847      2251
            Violence     0.7586    0.8513    0.8023       753       845
    Barriers to Care     0.7271    0.7984    0.7611       387       425
 Transitions of Care     0.7845    0.9322    0.8520      1371      1629
  Patient Disability     0.8849    0.9377    0.9105      1107      1173
      Legal Problems     0.8205    0.8854    0.8517       733       791
Financial Insecurity     0.7366    0.8499    0.7892      1392      1606
     Substance Abuse     0.8157    0.8966    0.8542       928      1020
                Pain     0.8072    0.9421    0.8694       311       363
    Social Isolation     0.5925    0.7874    0.6762      1082      1438
     Food Insecurity     0.7578    0.8818    0.8151       110       128

           micro avg     0.7646    0.8826    0.8194     11648     13446
           macro avg     0.7675    0.8776    0.8181     11648     13446
        weighted avg     0.7688    0.8826    0.8209     11648     13446

05/17/2021 23:35:48 - INFO - __main__ -   
              precision    recall  f1-score   support predicted

           y     0.7750    0.8504    0.8109      8562      9395
         n_y     0.6746    0.6873    0.6809      3080      3138

   micro avg     0.7499    0.8072    0.7775     11642     12533
   macro avg     0.7248    0.7689    0.7459     11642     12533
weighted avg     0.7484    0.8072    0.7765     11642     12533

05/17/2021 23:39:58 - INFO - __main__ -   
              precision    recall  f1-score   support predicted

     Current     0.7833    0.8471    0.8139     10331     11172
  notCurrent     0.6087    0.6278    0.6181      1311      1352

   micro avg     0.7645    0.8224    0.7924     11642     12524
   macro avg     0.6960    0.7374    0.7160     11642     12524
weighted avg     0.7636    0.8224    0.7919     11642     12524

Sep 05, 2021 ################################################################################################
Total EHRs: 60110, annotations: 27331
********************
No overlap: 3242, Single overlaps: 10824, More than 2 ann overlaps: 9, Overlap for single ann: 844
Counter({'Emily-Raelene': 4506, 'Emily-Heather': 3423, 'Heather-Raelene': 2895})
Counter({'Raelene': 1518, 'Emily': 1405, 'Heather': 319})
********************
Counter({'Psychiatric Symptoms': 11288, 'Housing Insecurity': 11149, 'Transitions of Care': 9756, 'Substance Abuse': 8897, 'Patient Disability': 6739, 'Violence': 5165, 'Financial Insecurity': 5015, 'Suicide Outcome': 4383, 'Loss of Relationship': 3725, 'Legal Problems': 3641, 'Social Isolation': 3458, 'Pain': 2708, 'Job Insecurity': 2708, 'Barriers to Care': 2172, 'Food Insecurity': 785, 'Stigma/Shame': 257, 'Physical Isolation': 172, 'Demographics': 17, 'Exposure to suicide of family/friends': 4})
82039
Substance Abuse 8897 1.4611666853995728 13000
Psychiatric Symptoms 11288 1.3537384833451453 15281
Legal Problems 3641 1.3765449052458116 5012
Violence 5165 1.4917715392061957 7705
Loss of Relationship 3725 1.4451006711409395 5383
Barriers to Care 2172 1.5957642725598526 3466
Transitions of Care 9756 1.0542230422304224 10285
Stigma/Shame 257 1.2256809338521402 315
Suicide Outcome 4383 1.8726899383983573 8208
Patient Disability 6739 1.2697729633476778 8557
Pain 2708 1.096381093057607 2969
Housing Insecurity 11149 1.3415552964391426 14957
Financial Insecurity 5015 1.3248255234297108 6644
Job Insecurity 2708 1.147341211225997 3107
Social Isolation 3458 1.443609022556391 4992
Food Insecurity 785 1.7732484076433122 1392
Physical Isolation 172 1.5290697674418605 263
Demographics 17 1.1176470588235294 19
Exposure to suicide of family/friends 4 1.25 5
Total EHRs with relations : 0
dict_keys(['Substance Abuse', 'Psychiatric Symptoms', 'Legal Problems', 'Violence', 'Loss of Relationship', 'Barriers to Care', 'Transitions of Care', 'Stigma/Shame', 'Suicide Outcome', 'Patient Disability', 'Pain', 'Housing Insecurity', 'Financial Insecurity', 'Job Insecurity', 'Social Isolation', 'Food Insecurity', 'Physical Isolation', 'Demographics', 'Exposure to suicide of family/friends'])
********************
Total unique files:  14919, files:  27331
12769 1297
562 607 128
********************
09/05/2021 04:55:58 - INFO - __main__ -   ***** Running evaluation on dev*****
09/05/2021 04:55:58 - INFO - __main__ -     Num examples = 5469
09/05/2021 04:55:58 - INFO - __main__ -     Batch size = 8
09/05/2021 05:01:07 - INFO - __main__ -   
                      precision    recall  f1-score   support predicted

     Suicide Outcome     0.6156    0.7050    0.6573       861       986
  Patient Disability     0.8432    0.8953    0.8685      1213      1288
      Legal Problems     0.6159    0.7580    0.6796       715       880
Psychiatric Symptoms     0.7164    0.8160    0.7630      2294      2613
 Transitions of Care     0.7782    0.9079    0.8381      1998      2331
    Social Isolation     0.5433    0.6278    0.5825      1580      1826
            Violence     0.6072    0.7163    0.6573      1040      1227
    Barriers to Care     0.5205    0.6565    0.5806       425       536
  Housing Insecurity     0.7134    0.8369    0.7702      2275      2669
     Food Insecurity     0.7117    0.8587    0.7783       184       222
Financial Insecurity     0.6504    0.7813    0.7098      1431      1719
     Substance Abuse     0.6528    0.7683    0.7059      1640      1930
                Pain     0.7933    0.8694    0.8296       490       537

           micro avg     0.6823    0.7930    0.7335     16146     18764
           macro avg     0.6740    0.7844    0.7247     16146     18764
        weighted avg     0.6842    0.7930    0.7343     16146     18764

09/05/2021 05:01:10 - INFO - __main__ -   
              precision    recall  f1-score   support predicted

           y     0.7026    0.7470    0.7241     11512     12241
         n_y     0.5813    0.6648    0.6203      4630      5295

   micro avg     0.6659    0.7235    0.6935     16142     17536
   macro avg     0.6419    0.7059    0.6722     16142     17536
weighted avg     0.6678    0.7235    0.6943     16142     17536

09/05/2021 05:01:14 - INFO - __main__ -   
              precision    recall  f1-score   support predicted

     Current     0.6919    0.7728    0.7301     14155     15809
  notCurrent     0.5527    0.5380    0.5453      1987      1934

   micro avg     0.6768    0.7439    0.7088     16142     17743
   macro avg     0.6223    0.6554    0.6377     16142     17743
weighted avg     0.6748    0.7439    0.7074     16142     17743

09/05/2021 05:01:36 - INFO - __main__ -   ***** Running evaluation on test*****
09/05/2021 05:01:36 - INFO - __main__ -     Num examples = 5468
09/05/2021 05:01:36 - INFO - __main__ -     Batch size = 8
09/05/2021 05:06:48 - INFO - __main__ -   
                      precision    recall  f1-score   support predicted

Psychiatric Symptoms     0.7476    0.8212    0.7827      2114      2322
  Patient Disability     0.8440    0.8905    0.8666      1324      1397
     Substance Abuse     0.6756    0.7894    0.7281      1828      2136
    Social Isolation     0.5652    0.6585    0.6083      1508      1757
 Transitions of Care     0.7880    0.9197    0.8488      1980      2311
            Violence     0.6382    0.7310    0.6814      1052      1205
      Legal Problems     0.5372    0.7093    0.6114       774      1022
                Pain     0.8231    0.8588    0.8406       531       554
     Suicide Outcome     0.6620    0.7264    0.6927       720       790
  Housing Insecurity     0.7010    0.8295    0.7598      2258      2672
    Barriers to Care     0.5354    0.6634    0.5926       410       508
Financial Insecurity     0.6256    0.7628    0.6874      1636      1995
     Food Insecurity     0.6627    0.7857    0.7190       140       166

           micro avg     0.6887    0.7971    0.7389     16275     18835
           macro avg     0.6773    0.7805    0.7246     16275     18835
        weighted avg     0.6921    0.7971    0.7404     16275     18835

09/05/2021 05:06:52 - INFO - __main__ -   
              precision    recall  f1-score   support predicted

           y     0.7088    0.7509    0.7292     11606     12296
         n_y     0.5917    0.6720    0.6293      4665      5298

   micro avg     0.6735    0.7283    0.6998     16271     17594
   macro avg     0.6502    0.7115    0.6793     16271     17594
weighted avg     0.6752    0.7283    0.7006     16271     17594

09/05/2021 05:06:55 - INFO - __main__ -   
              precision    recall  f1-score   support predicted

     Current     0.6978    0.7722    0.7331     14203     15717
  notCurrent     0.5696    0.5696    0.5696      2068      2068

   micro avg     0.6829    0.7464    0.7132     16271     17785
   macro avg     0.6337    0.6709    0.6514     16271     17785
weighted avg     0.6815    0.7464    0.7123     16271     17785

Relaxed Matching

                      precision    recall  f1-score   support predicted

Financial Insecurity     0.7173    0.8747    0.7882      1636      1995
      Legal Problems     0.6898    0.9109    0.7851       774      1022
     Substance Abuse     0.7959    0.9300    0.8577      1828      2136
            Violence     0.7436    0.8517    0.7940      1052      1205
  Housing Insecurity     0.7736    0.9154    0.8385      2258      2672
  Patient Disability     0.8883    0.9373    0.9122      1324      1397
     Suicide Outcome     0.8025    0.8806    0.8397       720       790
 Transitions of Care     0.8044    0.9389    0.8665      1980      2311
     Food Insecurity     0.7108    0.8429    0.7712       140       166
                Pain     0.8736    0.9115    0.8922       531       554
    Barriers to Care     0.6437    0.7976    0.7124       410       508
Psychiatric Symptoms     0.8152    0.8955    0.8535      2114      2322
    Social Isolation     0.6790    0.7911    0.7308      1508      1757

           micro avg     0.7724    0.8939    0.8287     16275     18835
           macro avg     0.7645    0.8829    0.8186     16275     18835
        weighted avg     0.7750    0.8939    0.8296     16275     18835

09/05/2021 15:15:56 - INFO - __main__ -   
              precision    recall  f1-score   support predicted

           y     0.8017    0.8494    0.8249     11606     12296
         n_y     0.6538    0.7426    0.6954      4665      5298

   micro avg     0.7572    0.8188    0.7868     16271     17594
   macro avg     0.7278    0.7960    0.7601     16271     17594
weighted avg     0.7593    0.8188    0.7877     16271     17594

09/05/2021 15:36:03 - INFO - __main__ -   
              precision    recall  f1-score   support predicted

     Current     0.7807    0.8640    0.8203     14203     15717
  notCurrent     0.6678    0.6678    0.6678      2068      2068

   micro avg     0.7676    0.8390    0.8017     16271     17785
   macro avg     0.7243    0.7659    0.7440     16271     17785
weighted avg     0.7664    0.8390    0.8009     16271     17785


Nov 01, 2021 ################################################################################################
Data stat same as before, removed patience and ran for full 20 epochs, models: biobert and roberta

===BioBERT====
11/02/2021 04:36:11 - INFO - __main__ -   Epoch 19, Loss: 19.572797615081072
11/02/2021 04:36:20 - INFO - __main__ -   ***** Running evaluation on dev*****
11/02/2021 04:36:20 - INFO - __main__ -     Num examples = 5469
11/02/2021 04:36:20 - INFO - __main__ -     Batch size = 8
11/02/2021 04:42:28 - INFO - __main__ -   
                      precision    recall  f1-score   support predicted

    Social Isolation     0.5523    0.6285    0.5879      1580      1798
     Substance Abuse     0.6757    0.7762    0.7225      1640      1884
  Housing Insecurity     0.7216    0.8215    0.7683      2275      2590
Financial Insecurity     0.6644    0.7666    0.7119      1431      1651
            Violence     0.6438    0.7212    0.6803      1040      1165
     Suicide Outcome     0.6483    0.7259    0.6849       861       964
 Transitions of Care     0.7903    0.9089    0.8454      1998      2298
      Legal Problems     0.6808    0.7636    0.7198       715       802
  Patient Disability     0.8444    0.9035    0.8730      1213      1298
Psychiatric Symptoms     0.6978    0.8143    0.7516      2294      2677
    Barriers to Care     0.5295    0.6329    0.5766       425       508
                Pain     0.7427    0.8776    0.8045       490       579
     Food Insecurity     0.7400    0.8043    0.7708       184       200

           micro avg     0.6940    0.7915    0.7396     16146     18414
           macro avg     0.6870    0.7804    0.7306     16146     18414
        weighted avg     0.6947    0.7915    0.7398     16146     18414

11/02/2021 04:42:29 - INFO - __main__ -   
              precision    recall  f1-score   support predicted

           y     0.6968    0.7589    0.7265     11512     12539
         n_y     0.6305    0.6581    0.6440      4630      4833

   micro avg     0.6783    0.7300    0.7032     16142     17372
   macro avg     0.6636    0.7085    0.6853     16142     17372
weighted avg     0.6778    0.7300    0.7029     16142     17372

11/02/2021 04:42:31 - INFO - __main__ -   
              precision    recall  f1-score   support predicted

     Current     0.6953    0.7679    0.7298     14155     15632
  notCurrent     0.5840    0.5425    0.5625      1987      1846

   micro avg     0.6835    0.7401    0.7107     16142     17478
   macro avg     0.6396    0.6552    0.6461     16142     17478
weighted avg     0.6816    0.7401    0.7092     16142     17478

11/02/2021 04:42:40 - INFO - __main__ -   ***** Running evaluation on test*****
11/02/2021 04:42:40 - INFO - __main__ -     Num examples = 5468
11/02/2021 04:42:40 - INFO - __main__ -     Batch size = 8
11/02/2021 04:48:49 - INFO - __main__ -   
                      precision    recall  f1-score   support predicted

     Substance Abuse     0.6887    0.7817    0.7323      1828      2075
  Housing Insecurity     0.7270    0.8162    0.7690      2258      2535
Financial Insecurity     0.6499    0.7592    0.7003      1636      1911
            Violence     0.6595    0.7329    0.6943      1052      1169
     Food Insecurity     0.6709    0.7571    0.7114       140       158
Psychiatric Symptoms     0.7396    0.8207    0.7780      2114      2346
 Transitions of Care     0.8087    0.9136    0.8580      1980      2237
                Pain     0.7508    0.8456    0.7954       531       598
     Suicide Outcome     0.6585    0.7125    0.6845       720       779
    Social Isolation     0.5547    0.6492    0.5982      1508      1765
      Legal Problems     0.6331    0.7158    0.6719       774       875
    Barriers to Care     0.5549    0.6659    0.6053       410       492
  Patient Disability     0.8404    0.8950    0.8669      1324      1410

           micro avg     0.7023    0.7919    0.7444     16275     18350
           macro avg     0.6874    0.7743    0.7281     16275     18350
        weighted avg     0.7039    0.7919    0.7452     16275     18350

11/02/2021 04:48:51 - INFO - __main__ -   
              precision    recall  f1-score   support predicted

           y     0.7051    0.7537    0.7286     11606     12406
         n_y     0.6263    0.6502    0.6380      4665      4843

   micro avg     0.6829    0.7240    0.7029     16271     17249
   macro avg     0.6657    0.7019    0.6833     16271     17249
weighted avg     0.6825    0.7240    0.7026     16271     17249

11/02/2021 04:48:53 - INFO - __main__ -   
              precision    recall  f1-score   support predicted

     Current     0.7032    0.7664    0.7334     14203     15479
  notCurrent     0.5859    0.5803    0.5831      2068      2048

   micro avg     0.6895    0.7427    0.7151     16271     17527
   macro avg     0.6446    0.6733    0.6583     16271     17527
weighted avg     0.6883    0.7427    0.7143     16271     17527

Relaxed matching

                      precision    recall  f1-score   support predicted

    Social Isolation     0.6691    0.7832    0.7217      1508      1765
Psychiatric Symptoms     0.8103    0.8992    0.8525      2114      2346
      Legal Problems     0.7783    0.8798    0.8260       774       875
  Housing Insecurity     0.8032    0.9017    0.8496      2258      2535
  Patient Disability     0.8858    0.9434    0.9137      1324      1410
Financial Insecurity     0.7405    0.8649    0.7979      1636      1911
            Violence     0.7870    0.8745    0.8285      1052      1169
                Pain     0.8378    0.9435    0.8875       531       598
     Suicide Outcome     0.8049    0.8708    0.8366       720       779
 Transitions of Care     0.8212    0.9278    0.8712      1980      2237
     Substance Abuse     0.8082    0.9174    0.8593      1828      2075
    Barriers to Care     0.6768    0.8122    0.7384       410       492
     Food Insecurity     0.7215    0.8143    0.7651       140       158

           micro avg     0.7887    0.8892    0.8359     16275     18350
           macro avg     0.7803    0.8794    0.8268     16275     18350
        weighted avg     0.7899    0.8892    0.8365     16275     18350

11/02/2021 11:26:37 - INFO - __main__ -   
              precision    recall  f1-score   support predicted

           y     0.8011    0.8563    0.8278     11606     12406
         n_y     0.6969    0.7235    0.7099      4665      4843

   micro avg     0.7718    0.8182    0.7943     16271     17249
   macro avg     0.7490    0.7899    0.7688     16271     17249
weighted avg     0.7712    0.8182    0.7940     16271     17249

11/02/2021 11:34:55 - INFO - __main__ -   
              precision    recall  f1-score   support predicted

  notCurrent     0.6851    0.6784    0.6817      2068      2048
     Current     0.7902    0.8612    0.8242     14203     15479

   micro avg     0.7779    0.8380    0.8069     16271     17527
   macro avg     0.7376    0.7698    0.7530     16271     17527
weighted avg     0.7769    0.8380    0.8061     16271     17527

===Roberta===
11/02/2021 03:18:23 - INFO - __main__ -   Epoch 19, Loss: 19.42459368146956
11/02/2021 03:18:32 - INFO - __main__ -   ***** Running evaluation on dev*****
11/02/2021 03:18:32 - INFO - __main__ -     Num examples = 5469
11/02/2021 03:18:32 - INFO - __main__ -     Batch size = 8
11/02/2021 03:24:01 - INFO - __main__ -   
                      precision    recall  f1-score   support predicted

     Substance Abuse     0.6886    0.7835    0.7330      1640      1866
  Patient Disability     0.8526    0.8920    0.8719      1213      1269
    Barriers to Care     0.5508    0.6376    0.5911       425       492
     Suicide Outcome     0.6392    0.7305    0.6818       861       984
Psychiatric Symptoms     0.7178    0.8282    0.7691      2294      2647
Financial Insecurity     0.6810    0.7729    0.7241      1431      1624
    Social Isolation     0.5966    0.6842    0.6374      1580      1812
            Violence     0.6600    0.7298    0.6932      1040      1150
  Housing Insecurity     0.7388    0.8369    0.7848      2275      2577
      Legal Problems     0.6931    0.7580    0.7241       715       782
                Pain     0.7536    0.8551    0.8011       490       556
 Transitions of Care     0.7907    0.8999    0.8418      1998      2274
     Food Insecurity     0.7299    0.8370    0.7797       184       211

           micro avg     0.7087    0.8008    0.7520     16146     18244
           macro avg     0.6994    0.7881    0.7410     16146     18244
        weighted avg     0.7097    0.8008    0.7524     16146     18244

11/02/2021 03:24:03 - INFO - __main__ -   
              precision    recall  f1-score   support predicted

           y     0.7130    0.7649    0.7381     11512     12350
         n_y     0.6253    0.6773    0.6503      4630      5015

   micro avg     0.6877    0.7398    0.7128     16142     17365
   macro avg     0.6692    0.7211    0.6942     16142     17365
weighted avg     0.6879    0.7398    0.7129     16142     17365

11/02/2021 03:24:04 - INFO - __main__ -   
              precision    recall  f1-score   support predicted

  notCurrent     0.5895    0.5999    0.5947      1987      2022
     Current     0.7078    0.7749    0.7398     14155     15497

   micro avg     0.6942    0.7534    0.7226     16142     17519
   macro avg     0.6487    0.6874    0.6673     16142     17519
weighted avg     0.6933    0.7534    0.7220     16142     17519

11/02/2021 03:24:13 - INFO - __main__ -   ***** Running evaluation on test*****
11/02/2021 03:24:13 - INFO - __main__ -     Num examples = 5468
11/02/2021 03:24:13 - INFO - __main__ -     Batch size = 8
11/02/2021 03:29:46 - INFO - __main__ -   
                      precision    recall  f1-score   support predicted

     Substance Abuse     0.7042    0.7828    0.7415      1828      2032
  Patient Disability     0.8674    0.8995    0.8832      1324      1373
    Barriers to Care     0.5748    0.6463    0.6085       410       461
Psychiatric Symptoms     0.7445    0.8297    0.7848      2114      2356
     Suicide Outcome     0.6600    0.7361    0.6960       720       803
Financial Insecurity     0.6507    0.7537    0.6984      1636      1895
 Transitions of Care     0.8014    0.9152    0.8545      1980      2261
    Social Isolation     0.5784    0.6850    0.6272      1508      1786
      Legal Problems     0.6307    0.7171    0.6711       774       880
            Violence     0.6821    0.7567    0.7174      1052      1167
                Pain     0.7487    0.8418    0.7926       531       597
  Housing Insecurity     0.7449    0.8291    0.7847      2258      2513
     Food Insecurity     0.6588    0.8000    0.7226       140       170

           micro avg     0.7123    0.8007    0.7539     16275     18294
           macro avg     0.6959    0.7841    0.7371     16275     18294
        weighted avg     0.7141    0.8007    0.7547     16275     18294

11/02/2021 03:29:47 - INFO - __main__ -   
              precision    recall  f1-score   support predicted

           y     0.7174    0.7743    0.7447     11606     12526
         n_y     0.6408    0.6707    0.6554      4665      4883

   micro avg     0.6959    0.7446    0.7194     16271     17409
   macro avg     0.6791    0.7225    0.7001     16271     17409
weighted avg     0.6954    0.7446    0.7191     16271     17409

11/02/2021 03:29:49 - INFO - __main__ -   
              precision    recall  f1-score   support predicted

     Current     0.7140    0.7747    0.7431     14203     15411
  notCurrent     0.5967    0.6281    0.6120      2068      2177

   micro avg     0.6995    0.7561    0.7267     16271     17588
   macro avg     0.6553    0.7014    0.6776     16271     17588
weighted avg     0.6991    0.7561    0.7264     16271     17588

Relaxed matching

                      precision    recall  f1-score   support predicted

     Suicide Outcome     0.8020    0.8944    0.8457       720       803
            Violence     0.8055    0.8935    0.8472      1052      1167
  Patient Disability     0.9053    0.9388    0.9218      1324      1373
                Pain     0.8392    0.9435    0.8883       531       597
    Barriers to Care     0.6963    0.7829    0.7371       410       461
    Social Isolation     0.6915    0.8190    0.7498      1508      1786
      Legal Problems     0.7920    0.9005    0.8428       774       880
     Substance Abuse     0.8253    0.9174    0.8689      1828      2032
  Housing Insecurity     0.8102    0.9017    0.8535      2258      2513
Financial Insecurity     0.7536    0.8729    0.8088      1636      1895
 Transitions of Care     0.8147    0.9303    0.8687      1980      2261
     Food Insecurity     0.7000    0.8500    0.7677       140       170
Psychiatric Symptoms     0.8166    0.9101    0.8609      2114      2356

           micro avg     0.7985    0.8975    0.8451     16275     18294
           macro avg     0.7886    0.8889    0.8355     16275     18294
        weighted avg     0.7999    0.8975    0.8457     16275     18294

11/02/2021 11:22:29 - INFO - __main__ -   
              precision    recall  f1-score   support predicted

         n_y     0.7080    0.7411    0.7241      4665      4883
           y     0.8103    0.8745    0.8412     11606     12526

   micro avg     0.7816    0.8363    0.8080     16271     17409
   macro avg     0.7591    0.8078    0.7827     16271     17409
weighted avg     0.7810    0.8363    0.8076     16271     17409

11/02/2021 11:30:53 - INFO - __main__ -   
              precision    recall  f1-score   support predicted

     Current     0.8002    0.8683    0.8328     14203     15411
  notCurrent     0.6964    0.7331    0.7143      2068      2177

   micro avg     0.7874    0.8511    0.8180     16271     17588
   macro avg     0.7483    0.8007    0.7736     16271     17588
weighted avg     0.7870    0.8511    0.8178     16271     17588


Nov 13, 2021 ################################################################################################
Data stat same as before, removed patience, ran for full 20 epochs and added negative instances for `Social Isolation`
class according to the suggested keywords.

===Roberta===
11/14/2021 02:51:05 - INFO - __main__ -   Epoch 19, Loss: 18.983727330341935
11/14/2021 02:51:14 - INFO - __main__ -   ***** Running evaluation on dev*****
11/14/2021 02:51:14 - INFO - __main__ -     Num examples = 5469
11/14/2021 02:51:14 - INFO - __main__ -     Batch size = 8
11/14/2021 02:56:54 - INFO - __main__ -   
                      precision    recall  f1-score   support predicted

    Barriers to Care     0.5436    0.6306    0.5839       425       493
     Food Insecurity     0.7343    0.8261    0.7775       184       207
Financial Insecurity     0.6669    0.7834    0.7204      1431      1681
  Housing Insecurity     0.7334    0.8308    0.7791      2275      2577
     Substance Abuse     0.6849    0.7884    0.7330      1640      1888
      Legal Problems     0.6931    0.7580    0.7241       715       782
Psychiatric Symptoms     0.7103    0.8274    0.7644      2294      2672
    Social Isolation     0.8411    0.8653    0.8530      3645      3750
            Violence     0.6716    0.7356    0.7022      1040      1139
     Suicide Outcome     0.6457    0.7282    0.6845       861       971
                Pain     0.7634    0.8694    0.8130       490       558
 Transitions of Care     0.7934    0.9094    0.8475      1998      2290
  Patient Disability     0.8601    0.8969    0.8781      1213      1265

           micro avg     0.7419    0.8259    0.7817     18211     20273
           macro avg     0.7186    0.8038    0.7585     18211     20273
        weighted avg     0.7446    0.8259    0.7827     18211     20273

11/14/2021 02:56:56 - INFO - __main__ -   
              precision    recall  f1-score   support predicted

         n_y     0.7322    0.7760    0.7534      6695      7095
           y     0.7076    0.7655    0.7354     11512     12454

   micro avg     0.7165    0.7693    0.7420     18207     19549
   macro avg     0.7199    0.7707    0.7444     18207     19549
weighted avg     0.7166    0.7693    0.7420     18207     19549

11/14/2021 02:56:58 - INFO - __main__ -   
              precision    recall  f1-score   support predicted

     Current     0.7452    0.8064    0.7746     16220     17550
  notCurrent     0.5903    0.6150    0.6024      1987      2070

   micro avg     0.7289    0.7855    0.7561     18207     19620
   macro avg     0.6678    0.7107    0.6885     18207     19620
weighted avg     0.7283    0.7855    0.7558     18207     19620

11/14/2021 02:57:07 - INFO - __main__ -   ***** Running evaluation on test*****
11/14/2021 02:57:07 - INFO - __main__ -     Num examples = 5468
11/14/2021 02:57:07 - INFO - __main__ -     Batch size = 8
11/14/2021 03:02:51 - INFO - __main__ -   
                      precision    recall  f1-score   support predicted

     Substance Abuse     0.7002    0.7806    0.7382      1828      2038
    Barriers to Care     0.5638    0.6463    0.6023       410       470
  Patient Disability     0.8590    0.8882    0.8734      1324      1369
Financial Insecurity     0.6378    0.7641    0.6952      1636      1960
     Food Insecurity     0.6566    0.7786    0.7124       140       166
  Housing Insecurity     0.7387    0.8215    0.7779      2258      2511
Psychiatric Symptoms     0.7300    0.8273    0.7756      2114      2396
    Social Isolation     0.8548    0.8889    0.8715      3563      3705
      Legal Problems     0.6253    0.7028    0.6618       774       870
            Violence     0.6899    0.7614    0.7239      1052      1161
     Suicide Outcome     0.6788    0.7514    0.7132       720       797
                Pain     0.7759    0.8475    0.8101       531       580
 Transitions of Care     0.8082    0.9131    0.8575      1980      2237

           micro avg     0.7474    0.8261    0.7848     18330     20260
           macro avg     0.7168    0.7978    0.7549     18330     20260
        weighted avg     0.7502    0.8261    0.7860     18330     20260

11/14/2021 03:02:52 - INFO - __main__ -   
              precision    recall  f1-score   support predicted

           y     0.7154    0.7742    0.7436     11606     12560
         n_y     0.7381    0.7658    0.7517      6720      6972

   micro avg     0.7235    0.7711    0.7465     18326     19532
   macro avg     0.7267    0.7700    0.7476     18326     19532
weighted avg     0.7237    0.7711    0.7466     18326     19532

11/14/2021 03:02:54 - INFO - __main__ -   
              precision    recall  f1-score   support predicted

     Current     0.7517    0.7989    0.7746     16258     17278
  notCurrent     0.5929    0.6576    0.6236      2068      2294

   micro avg     0.7331    0.7829    0.7572     18326     19572
   macro avg     0.6723    0.7283    0.6991     18326     19572
weighted avg     0.7338    0.7829    0.7575     18326     19572


Relaxed matching

                      precision    recall  f1-score   support predicted

  Housing Insecurity     0.8108    0.9017    0.8538      2258      2511
Financial Insecurity     0.7332    0.8784    0.7992      1636      1960
     Suicide Outcome     0.8080    0.8944    0.8490       720       797
    Social Isolation     0.9166    0.9531    0.9345      3563      3705
 Transitions of Care     0.8203    0.9268    0.8703      1980      2237
            Violence     0.8114    0.8954    0.8513      1052      1161
     Substance Abuse     0.8263    0.9212    0.8712      1828      2038
      Legal Problems     0.7920    0.8902    0.8382       774       870
    Barriers to Care     0.6872    0.7878    0.7341       410       470
Psychiatric Symptoms     0.8076    0.9153    0.8581      2114      2396
  Patient Disability     0.8992    0.9298    0.9142      1324      1369
                Pain     0.8638    0.9435    0.9019       531       580
     Food Insecurity     0.6988    0.8286    0.7582       140       166

           micro avg     0.8277    0.9148    0.8691     18330     20260
           macro avg     0.8058    0.8974    0.8488     18330     20260
        weighted avg     0.8301    0.9148    0.8700     18330     20260

11/14/2021 03:16:13 - INFO - __main__ -   
              precision    recall  f1-score   support predicted

           y     0.8092    0.8757    0.8411     11606     12560
         n_y     0.7929    0.8226    0.8075      6720      6972

   micro avg     0.8033    0.8562    0.8289     18326     19532
   macro avg     0.8010    0.8491    0.8243     18326     19532
weighted avg     0.8032    0.8562    0.8288     18326     19532

11/14/2021 03:26:22 - INFO - __main__ -   
              precision    recall  f1-score   support predicted

     Current     0.8323    0.8845    0.8576     16258     17278
  notCurrent     0.6835    0.7582    0.7189      2068      2294

   micro avg     0.8149    0.8703    0.8417     18326     19572
   macro avg     0.7579    0.8214    0.7883     18326     19572
weighted avg     0.8155    0.8703    0.8420     18326     19572
